(version 1)

(rule GTY_via_GND
   # wider clearance between GTY pairs, GND
   (constraint clearance (min "0.25 mm"))
   (condition "A.NetClass == 'GTY' && A.Type == 'Via' && B.Type == 'Zone'")
)

(rule GTY_plane_GND
   # wider clearance between GTY pairs, GND
   (constraint clearance (min "0.5 mm"))
   (condition "A.NetClass == 'GTY' && A.Type == 'Track' && B.Type == 'Zone'")
)

(rule GTY_plane_GND
   # wider clearance between PCIe pairs, GND
   (constraint clearance (min "0.4 mm"))
   (condition "A.NetClass == 'PCIe' && A.Type == 'Track' && B.Type == 'Zone'")
)

(rule "Distance between Vias of Different Nets"
    (constraint hole_to_hole (min 0.5mm))
    (condition "A.Type =='Via' && B.Type =='Via' && A.Net != B.Net"))

(rule "Via to Plane Clearance"
    (constraint clearance (min 0.15mm))
    (condition "A.Type =='Via' && B.Type =='Zone'"))

(rule "Via to Track Clearance"
    (constraint hole_clearance (min 0.254mm))
    (condition "A.Type =='Via' && B.Type =='Track'"))

(rule "Via to Plane Clearance"
    (constraint hole_clearance (min 0.254mm))
    (condition "A.Type =='Via' && B.Type =='Zone'"))

(rule "Trace not GND to GND Plane Clearance"
    (constraint clearance (min 0.3mm))
    (condition "A.Type =='Track' && B.Type =='Zone' && A.Net != 'GND' && B.Net!='GND'"))

(rule "Trace not GND to Plane Clearance"
    (constraint clearance (min 0.5mm))
    (condition "A.Type =='Track' && B.Type =='Zone' && A.Net != 'GND' && B.Net=='GND'"))

(rule "DDR CA length"
   (constraint length (opt 75mm) (max 75.1mm))
   (condition "A.NetClass == 'DDRCA'")
   (severity warning)
)

(rule "DDR DQ0 length"
   (constraint length (opt 55mm) (max 55.1mm))
   (condition "A.NetClass == 'DQ0'")
   (severity warning)
)
