(footprint "BGA-484_22x22_19.0x19.0mm" (version 20221018) (generator pcbnew)
  (layer "F.Cu")
  (attr smd)
  (fp_text reference "REF**" (at 0 -10.5) (layer "F.SilkS")
      (effects (font (size 1 1) (thickness 0.15)))
    (tstamp 5c6ca50a-cf91-4a78-9eef-925b4d6acf26)
  )
  (fp_text value "BGA-484_22x22_19.0x19.0mm" (at 0 10.5) (layer "F.Fab")
      (effects (font (size 1 1) (thickness 0.15)))
    (tstamp 3b779a67-d390-42df-9513-3552cfe9f414)
  )
  (fp_text user "${REFERENCE}" (at 0 0) (layer "F.Fab")
      (effects (font (size 1 1) (thickness 0.15)))
    (tstamp d8eedbab-06a7-4aeb-af56-6d8072930b44)
  )
  (fp_line (start -9.62 -8.5) (end -9.62 -4.87)
    (stroke (width 0.12) (type default)) (layer "F.SilkS") (tstamp 629408ae-c35d-4169-a5bd-2f98f8a8a0f6))
  (fp_line (start -9.62 9.62) (end -9.62 4.87)
    (stroke (width 0.12) (type default)) (layer "F.SilkS") (tstamp 77fcd774-730e-4b57-a5f7-935512e9733d))
  (fp_line (start -8.5 -9.62) (end -9.62 -8.5)
    (stroke (width 0.12) (type default)) (layer "F.SilkS") (tstamp c25dfe3c-e10d-4686-b83a-a2dc273bb85d))
  (fp_line (start -4.87 -9.62) (end -8.5 -9.62)
    (stroke (width 0.12) (type default)) (layer "F.SilkS") (tstamp 4986551d-4daa-4aa7-b180-c5dc02f93deb))
  (fp_line (start -4.87 9.62) (end -9.62 9.62)
    (stroke (width 0.12) (type default)) (layer "F.SilkS") (tstamp e9a41671-f167-4a4f-bc5e-95652fb8b1ff))
  (fp_line (start 4.87 -9.62) (end 9.62 -9.62)
    (stroke (width 0.12) (type default)) (layer "F.SilkS") (tstamp f80b9585-ce20-4ee8-a4cc-fc81261707f3))
  (fp_line (start 4.87 9.62) (end 9.62 9.62)
    (stroke (width 0.12) (type default)) (layer "F.SilkS") (tstamp 967df806-31d2-4eb0-a9ef-67cdb26a3648))
  (fp_line (start 9.62 -9.62) (end 9.62 -4.87)
    (stroke (width 0.12) (type default)) (layer "F.SilkS") (tstamp 63423978-0982-4e9f-8986-18ff169d5d8d))
  (fp_line (start 9.62 9.62) (end 9.62 4.87)
    (stroke (width 0.12) (type default)) (layer "F.SilkS") (tstamp 856f708c-8f0c-44fb-aab9-1a68bad663f5))
  (fp_circle (center -9.5 -9.5) (end -9.5 -9.4)
    (stroke (width 0.2) (type default)) (fill none) (layer "F.SilkS") (tstamp 19695199-a15d-4dd3-ab44-d6992c6894f9))
  (fp_line (start -9.75 -9.75) (end 9.75 -9.75)
    (stroke (width 0.05) (type default)) (layer "F.CrtYd") (tstamp 6bbbb841-896c-44e2-9ab2-731ca267525a))
  (fp_line (start -9.75 9.75) (end -9.75 -9.75)
    (stroke (width 0.05) (type default)) (layer "F.CrtYd") (tstamp 81930565-4160-47af-9b80-05c98cbc4a4b))
  (fp_line (start 9.75 -9.75) (end 9.75 9.75)
    (stroke (width 0.05) (type default)) (layer "F.CrtYd") (tstamp 2e60756f-d9b8-40fc-8c03-c917a1361291))
  (fp_line (start 9.75 9.75) (end -9.75 9.75)
    (stroke (width 0.05) (type default)) (layer "F.CrtYd") (tstamp 680f625f-63c7-472a-8cbf-22e2a8fd2dd3))
  (fp_line (start -9.5 -8.5) (end -9.5 9.5)
    (stroke (width 0.1) (type default)) (layer "F.Fab") (tstamp ae130692-c76a-4172-b58e-c435debdeed3))
  (fp_line (start -9.5 9.5) (end 9.5 9.5)
    (stroke (width 0.1) (type default)) (layer "F.Fab") (tstamp 29687215-587e-4d6b-aade-ab6bb911f80d))
  (fp_line (start -8.5 -9.5) (end -9.5 -8.5)
    (stroke (width 0.1) (type default)) (layer "F.Fab") (tstamp 442ded23-e538-421c-9ac8-5da7d98c865b))
  (fp_line (start 9.5 -9.5) (end -8.5 -9.5)
    (stroke (width 0.1) (type default)) (layer "F.Fab") (tstamp 4a9ad64e-cff3-4e20-bbaa-a6d080a21bb3))
  (fp_line (start 9.5 9.5) (end 9.5 -9.5)
    (stroke (width 0.1) (type default)) (layer "F.Fab") (tstamp a2f2617c-0b43-4a8d-9fea-bc350ad9d300))
  (pad "A1" smd circle (at -8.4 -8.4) (size 0.4 0.4) (layers "F.Cu" "F.Paste" "F.Mask") (tstamp 791a34af-5f1a-45c3-bc07-23acf8ed23fe))
  (pad "A2" smd circle (at -7.6 -8.4) (size 0.4 0.4) (layers "F.Cu" "F.Paste" "F.Mask") (tstamp 45d952a6-6a5a-481b-85af-17479f2953df))
  (pad "A3" smd circle (at -6.8 -8.4) (size 0.4 0.4) (layers "F.Cu" "F.Paste" "F.Mask") (tstamp ebf73886-e707-4c83-841b-ea03fb328ba8))
  (pad "A4" smd circle (at -6 -8.4) (size 0.4 0.4) (layers "F.Cu" "F.Paste" "F.Mask") (tstamp 01e8cae2-75af-479c-ab0a-052199a69868))
  (pad "A5" smd circle (at -5.2 -8.4) (size 0.4 0.4) (layers "F.Cu" "F.Paste" "F.Mask") (tstamp 3da7e14e-d940-4508-94dc-3a72a57112a0))
  (pad "A6" smd circle (at -4.4 -8.4) (size 0.4 0.4) (layers "F.Cu" "F.Paste" "F.Mask") (tstamp 10991d13-4300-4e9c-ad70-9ef5b4fc4cb0))
  (pad "A7" smd circle (at -3.6 -8.4) (size 0.4 0.4) (layers "F.Cu" "F.Paste" "F.Mask") (tstamp c6badcb1-7246-41ed-b7fe-54e785b6d1cc))
  (pad "A8" smd circle (at -2.8 -8.4) (size 0.4 0.4) (layers "F.Cu" "F.Paste" "F.Mask") (tstamp 3835814a-4f68-4a6d-b6e0-fe8dfa071ac5))
  (pad "A9" smd circle (at -2 -8.4) (size 0.4 0.4) (layers "F.Cu" "F.Paste" "F.Mask") (tstamp a3e09948-7346-4879-8bc0-b7a5aa89cb9b))
  (pad "A10" smd circle (at -1.2 -8.4) (size 0.4 0.4) (layers "F.Cu" "F.Paste" "F.Mask") (tstamp 127c06a6-6962-46cd-a90b-90a44ae1f728))
  (pad "A11" smd circle (at -0.4 -8.4) (size 0.4 0.4) (layers "F.Cu" "F.Paste" "F.Mask") (tstamp 8e0a6408-2dc0-41ff-9fb3-2c0613ada05a))
  (pad "A12" smd circle (at 0.4 -8.4) (size 0.4 0.4) (layers "F.Cu" "F.Paste" "F.Mask") (tstamp 0df322cb-091e-43ef-bf95-e451d0c38a81))
  (pad "A13" smd circle (at 1.2 -8.4) (size 0.4 0.4) (layers "F.Cu" "F.Paste" "F.Mask") (tstamp c9758c00-2ada-4e93-a978-721f36cb6a71))
  (pad "A14" smd circle (at 2 -8.4) (size 0.4 0.4) (layers "F.Cu" "F.Paste" "F.Mask") (tstamp 35915667-5891-4733-9fcb-671adbffaac2))
  (pad "A15" smd circle (at 2.8 -8.4) (size 0.4 0.4) (layers "F.Cu" "F.Paste" "F.Mask") (tstamp 7caac957-7ca5-40a1-9be6-3cc9ee3ef5b8))
  (pad "A16" smd circle (at 3.6 -8.4) (size 0.4 0.4) (layers "F.Cu" "F.Paste" "F.Mask") (tstamp 864ae6c0-2cc6-4bea-97b3-4c7c01ea049f))
  (pad "A17" smd circle (at 4.4 -8.4) (size 0.4 0.4) (layers "F.Cu" "F.Paste" "F.Mask") (tstamp 9c264b0d-0779-455e-82e4-91db8b22a73f))
  (pad "A18" smd circle (at 5.2 -8.4) (size 0.4 0.4) (layers "F.Cu" "F.Paste" "F.Mask") (tstamp 28b2e053-39f9-4403-8170-c35346f1609f))
  (pad "A19" smd circle (at 6 -8.4) (size 0.4 0.4) (layers "F.Cu" "F.Paste" "F.Mask") (tstamp 2339d958-5f58-4651-8645-c3d53e7590f3))
  (pad "A20" smd circle (at 6.8 -8.4) (size 0.4 0.4) (layers "F.Cu" "F.Paste" "F.Mask") (tstamp 7bd2a9d9-bcdd-40ca-8d09-b6a84dea08a8))
  (pad "A21" smd circle (at 7.6 -8.4) (size 0.4 0.4) (layers "F.Cu" "F.Paste" "F.Mask") (tstamp 36747ec5-2399-48bf-895b-1b3784247ec4))
  (pad "A22" smd circle (at 8.4 -8.4) (size 0.4 0.4) (layers "F.Cu" "F.Paste" "F.Mask") (tstamp e713b126-8910-4dfe-a39f-fad29ec173b9))
  (pad "AA1" smd circle (at -8.4 7.6) (size 0.4 0.4) (layers "F.Cu" "F.Paste" "F.Mask") (tstamp c836b308-7b17-4e20-ba39-ac30b12900aa))
  (pad "AA2" smd circle (at -7.6 7.6) (size 0.4 0.4) (layers "F.Cu" "F.Paste" "F.Mask") (tstamp 66f17117-ab74-4f5d-9a0f-695a55e48321))
  (pad "AA3" smd circle (at -6.8 7.6) (size 0.4 0.4) (layers "F.Cu" "F.Paste" "F.Mask") (tstamp 82668313-2973-4646-9119-db6e04af1ad5))
  (pad "AA4" smd circle (at -6 7.6) (size 0.4 0.4) (layers "F.Cu" "F.Paste" "F.Mask") (tstamp 04684b25-919e-4257-96ee-d85184a64e37))
  (pad "AA5" smd circle (at -5.2 7.6) (size 0.4 0.4) (layers "F.Cu" "F.Paste" "F.Mask") (tstamp 02839775-f37c-4431-8e45-f8c854d0877b))
  (pad "AA6" smd circle (at -4.4 7.6) (size 0.4 0.4) (layers "F.Cu" "F.Paste" "F.Mask") (tstamp b4bc45f9-f0f8-454c-9a00-7265328a5f4b))
  (pad "AA7" smd circle (at -3.6 7.6) (size 0.4 0.4) (layers "F.Cu" "F.Paste" "F.Mask") (tstamp 98143462-abd8-4aaa-80b6-82b59bb80d90))
  (pad "AA8" smd circle (at -2.8 7.6) (size 0.4 0.4) (layers "F.Cu" "F.Paste" "F.Mask") (tstamp 177b7964-a3f3-4701-8457-acb69080af4b))
  (pad "AA9" smd circle (at -2 7.6) (size 0.4 0.4) (layers "F.Cu" "F.Paste" "F.Mask") (tstamp 70a1b1c5-14ff-4df0-8b3e-b335a5980ba2))
  (pad "AA10" smd circle (at -1.2 7.6) (size 0.4 0.4) (layers "F.Cu" "F.Paste" "F.Mask") (tstamp f786cd2e-ec27-479f-afd7-2282eb30cfa2))
  (pad "AA11" smd circle (at -0.4 7.6) (size 0.4 0.4) (layers "F.Cu" "F.Paste" "F.Mask") (tstamp f2f46c3a-f0e1-439a-9ec5-d40e5b88acc3))
  (pad "AA12" smd circle (at 0.4 7.6) (size 0.4 0.4) (layers "F.Cu" "F.Paste" "F.Mask") (tstamp be99119c-49b7-4537-bd6d-d4036603903a))
  (pad "AA13" smd circle (at 1.2 7.6) (size 0.4 0.4) (layers "F.Cu" "F.Paste" "F.Mask") (tstamp 4986e81a-7f84-4371-b13c-e65fdfd9a6cd))
  (pad "AA14" smd circle (at 2 7.6) (size 0.4 0.4) (layers "F.Cu" "F.Paste" "F.Mask") (tstamp d2ee3284-d433-428a-83a4-0f4aa566a593))
  (pad "AA15" smd circle (at 2.8 7.6) (size 0.4 0.4) (layers "F.Cu" "F.Paste" "F.Mask") (tstamp eb9571e8-2667-4e8f-b3cb-ada19e238fa4))
  (pad "AA16" smd circle (at 3.6 7.6) (size 0.4 0.4) (layers "F.Cu" "F.Paste" "F.Mask") (tstamp 15d5b302-3ac7-4596-baa3-00c60ee92db3))
  (pad "AA17" smd circle (at 4.4 7.6) (size 0.4 0.4) (layers "F.Cu" "F.Paste" "F.Mask") (tstamp 61a1fcee-7c04-4448-b274-91247e1fe2cf))
  (pad "AA18" smd circle (at 5.2 7.6) (size 0.4 0.4) (layers "F.Cu" "F.Paste" "F.Mask") (tstamp b9a7c74c-2344-461c-b3b7-a3874cf76319))
  (pad "AA19" smd circle (at 6 7.6) (size 0.4 0.4) (layers "F.Cu" "F.Paste" "F.Mask") (tstamp 1fdd289a-b092-48cd-89b4-4145a1b1f8f6))
  (pad "AA20" smd circle (at 6.8 7.6) (size 0.4 0.4) (layers "F.Cu" "F.Paste" "F.Mask") (tstamp 6b781a6a-afae-479f-a86f-3d41abac0004))
  (pad "AA21" smd circle (at 7.6 7.6) (size 0.4 0.4) (layers "F.Cu" "F.Paste" "F.Mask") (tstamp 8cf92ea7-1818-4514-b381-b78bfd37df2c))
  (pad "AA22" smd circle (at 8.4 7.6) (size 0.4 0.4) (layers "F.Cu" "F.Paste" "F.Mask") (tstamp fe177324-5dea-408b-a3d2-97eaa8395d25))
  (pad "AB1" smd circle (at -8.4 8.4) (size 0.4 0.4) (layers "F.Cu" "F.Paste" "F.Mask") (tstamp 1f87bd35-89b1-43f6-ab53-7c1049473fec))
  (pad "AB2" smd circle (at -7.6 8.4) (size 0.4 0.4) (layers "F.Cu" "F.Paste" "F.Mask") (tstamp dc568371-d82c-4180-bded-cbadeaa9cc33))
  (pad "AB3" smd circle (at -6.8 8.4) (size 0.4 0.4) (layers "F.Cu" "F.Paste" "F.Mask") (tstamp 1e7e7202-2ded-40d9-9686-7c0664b54d82))
  (pad "AB4" smd circle (at -6 8.4) (size 0.4 0.4) (layers "F.Cu" "F.Paste" "F.Mask") (tstamp d256f2c3-2e56-404a-b093-4452a4804416))
  (pad "AB5" smd circle (at -5.2 8.4) (size 0.4 0.4) (layers "F.Cu" "F.Paste" "F.Mask") (tstamp a2c63d56-ad9a-4972-a6b2-9a77cad24989))
  (pad "AB6" smd circle (at -4.4 8.4) (size 0.4 0.4) (layers "F.Cu" "F.Paste" "F.Mask") (tstamp e7731cb8-b0b0-48e9-b1ad-280db812adb1))
  (pad "AB7" smd circle (at -3.6 8.4) (size 0.4 0.4) (layers "F.Cu" "F.Paste" "F.Mask") (tstamp 894fefd3-c5e2-430b-8e20-67190c3d2c3a))
  (pad "AB8" smd circle (at -2.8 8.4) (size 0.4 0.4) (layers "F.Cu" "F.Paste" "F.Mask") (tstamp 7c1e9f58-54d2-4024-9fd0-538e557db752))
  (pad "AB9" smd circle (at -2 8.4) (size 0.4 0.4) (layers "F.Cu" "F.Paste" "F.Mask") (tstamp 13e46ad8-ba90-4576-9e24-3b7af62d1c65))
  (pad "AB10" smd circle (at -1.2 8.4) (size 0.4 0.4) (layers "F.Cu" "F.Paste" "F.Mask") (tstamp a28ecfa7-3a86-4ebc-ba83-933d5c3f772a))
  (pad "AB11" smd circle (at -0.4 8.4) (size 0.4 0.4) (layers "F.Cu" "F.Paste" "F.Mask") (tstamp 848f294c-69a0-49f3-bb56-e73a3cacbffd))
  (pad "AB12" smd circle (at 0.4 8.4) (size 0.4 0.4) (layers "F.Cu" "F.Paste" "F.Mask") (tstamp 614a74f5-2c76-40a2-89fe-7bd3a2c88130))
  (pad "AB13" smd circle (at 1.2 8.4) (size 0.4 0.4) (layers "F.Cu" "F.Paste" "F.Mask") (tstamp f49d523a-7ccb-4448-8622-2dfee126799e))
  (pad "AB14" smd circle (at 2 8.4) (size 0.4 0.4) (layers "F.Cu" "F.Paste" "F.Mask") (tstamp 7954e5e2-acb6-4f4d-9f54-8314aa23b88d))
  (pad "AB15" smd circle (at 2.8 8.4) (size 0.4 0.4) (layers "F.Cu" "F.Paste" "F.Mask") (tstamp a9adae5f-cd89-4133-b779-ffc3032a1812))
  (pad "AB16" smd circle (at 3.6 8.4) (size 0.4 0.4) (layers "F.Cu" "F.Paste" "F.Mask") (tstamp 0e2497d0-6ff3-438f-895e-c17cb35940dc))
  (pad "AB17" smd circle (at 4.4 8.4) (size 0.4 0.4) (layers "F.Cu" "F.Paste" "F.Mask") (tstamp 10bf777a-fd07-4599-b060-e354b850c1d4))
  (pad "AB18" smd circle (at 5.2 8.4) (size 0.4 0.4) (layers "F.Cu" "F.Paste" "F.Mask") (tstamp eb09ee44-ab9a-4b21-9e87-1225f44e9c99))
  (pad "AB19" smd circle (at 6 8.4) (size 0.4 0.4) (layers "F.Cu" "F.Paste" "F.Mask") (tstamp 0c586cf4-f7ac-4f77-8299-37a2de9b8016))
  (pad "AB20" smd circle (at 6.8 8.4) (size 0.4 0.4) (layers "F.Cu" "F.Paste" "F.Mask") (tstamp 7e4654ab-aeed-4f7b-b670-c2cf660815bd))
  (pad "AB21" smd circle (at 7.6 8.4) (size 0.4 0.4) (layers "F.Cu" "F.Paste" "F.Mask") (tstamp 05de1eb8-ecb9-4833-9e8a-1026d8264bd1))
  (pad "AB22" smd circle (at 8.4 8.4) (size 0.4 0.4) (layers "F.Cu" "F.Paste" "F.Mask") (tstamp f4afce79-249a-4f3f-9c9a-273ac1067aa5))
  (pad "B1" smd circle (at -8.4 -7.6) (size 0.4 0.4) (layers "F.Cu" "F.Paste" "F.Mask") (tstamp 712e27f0-6ff0-417f-a996-5e80085b1d41))
  (pad "B2" smd circle (at -7.6 -7.6) (size 0.4 0.4) (layers "F.Cu" "F.Paste" "F.Mask") (tstamp e6cc4ed3-4d8b-49b7-83de-ebe1e0c58770))
  (pad "B3" smd circle (at -6.8 -7.6) (size 0.4 0.4) (layers "F.Cu" "F.Paste" "F.Mask") (tstamp ba8473ad-d287-4b54-b257-8b9644d3e96b))
  (pad "B4" smd circle (at -6 -7.6) (size 0.4 0.4) (layers "F.Cu" "F.Paste" "F.Mask") (tstamp c84640ce-4600-4132-a6c5-a34654054ea0))
  (pad "B5" smd circle (at -5.2 -7.6) (size 0.4 0.4) (layers "F.Cu" "F.Paste" "F.Mask") (tstamp da5e082f-5410-42f2-914d-4ccaae4e7228))
  (pad "B6" smd circle (at -4.4 -7.6) (size 0.4 0.4) (layers "F.Cu" "F.Paste" "F.Mask") (tstamp 8009dcd4-aaad-4409-a0ef-441a32dcc18b))
  (pad "B7" smd circle (at -3.6 -7.6) (size 0.4 0.4) (layers "F.Cu" "F.Paste" "F.Mask") (tstamp 6fb374a5-b3f1-46ea-b765-c65e0b0522ec))
  (pad "B8" smd circle (at -2.8 -7.6) (size 0.4 0.4) (layers "F.Cu" "F.Paste" "F.Mask") (tstamp 036477e5-ff49-4cde-b196-da1f88ba0666))
  (pad "B9" smd circle (at -2 -7.6) (size 0.4 0.4) (layers "F.Cu" "F.Paste" "F.Mask") (tstamp 8be6de97-4d29-4803-8456-7befae53f5e8))
  (pad "B10" smd circle (at -1.2 -7.6) (size 0.4 0.4) (layers "F.Cu" "F.Paste" "F.Mask") (tstamp a9be30aa-ef36-4ab9-887c-3141a413438d))
  (pad "B11" smd circle (at -0.4 -7.6) (size 0.4 0.4) (layers "F.Cu" "F.Paste" "F.Mask") (tstamp ecc4cd30-e6fe-45d2-8f0f-5c9724280ccb))
  (pad "B12" smd circle (at 0.4 -7.6) (size 0.4 0.4) (layers "F.Cu" "F.Paste" "F.Mask") (tstamp adc611a5-d502-4f53-9475-f1042355678e))
  (pad "B13" smd circle (at 1.2 -7.6) (size 0.4 0.4) (layers "F.Cu" "F.Paste" "F.Mask") (tstamp 379cbd81-0f69-4f36-9d78-e2fe991cfe5c))
  (pad "B14" smd circle (at 2 -7.6) (size 0.4 0.4) (layers "F.Cu" "F.Paste" "F.Mask") (tstamp 1e39e5e5-4cd4-41fa-a152-cdef53efc6b9))
  (pad "B15" smd circle (at 2.8 -7.6) (size 0.4 0.4) (layers "F.Cu" "F.Paste" "F.Mask") (tstamp ac3724b6-2e31-4cb6-a2c3-7bf06892652a))
  (pad "B16" smd circle (at 3.6 -7.6) (size 0.4 0.4) (layers "F.Cu" "F.Paste" "F.Mask") (tstamp 1ebf9836-be4a-40b0-95de-9b24e55634e4))
  (pad "B17" smd circle (at 4.4 -7.6) (size 0.4 0.4) (layers "F.Cu" "F.Paste" "F.Mask") (tstamp c06d9b02-51ca-4350-947f-44d36c399d6b))
  (pad "B18" smd circle (at 5.2 -7.6) (size 0.4 0.4) (layers "F.Cu" "F.Paste" "F.Mask") (tstamp 00aeb398-bcc2-4eb0-9477-a4b0f96a50bb))
  (pad "B19" smd circle (at 6 -7.6) (size 0.4 0.4) (layers "F.Cu" "F.Paste" "F.Mask") (tstamp 11a1a447-2f83-496d-9aec-960efcae0abc))
  (pad "B20" smd circle (at 6.8 -7.6) (size 0.4 0.4) (layers "F.Cu" "F.Paste" "F.Mask") (tstamp d47c8b12-381a-4331-ab3a-3d0fbdfc3809))
  (pad "B21" smd circle (at 7.6 -7.6) (size 0.4 0.4) (layers "F.Cu" "F.Paste" "F.Mask") (tstamp 98a61720-e06c-498d-986b-b462c757543e))
  (pad "B22" smd circle (at 8.4 -7.6) (size 0.4 0.4) (layers "F.Cu" "F.Paste" "F.Mask") (tstamp 4e53d9f0-d1dd-470b-b4cc-b101bb1c6d5e))
  (pad "C1" smd circle (at -8.4 -6.8) (size 0.4 0.4) (layers "F.Cu" "F.Paste" "F.Mask") (tstamp 16b539ce-9d00-43de-9d7d-be3d1539405f))
  (pad "C2" smd circle (at -7.6 -6.8) (size 0.4 0.4) (layers "F.Cu" "F.Paste" "F.Mask") (tstamp c2dae7f3-2c41-4741-b72a-a6a40f94671a))
  (pad "C3" smd circle (at -6.8 -6.8) (size 0.4 0.4) (layers "F.Cu" "F.Paste" "F.Mask") (tstamp 3458e3d5-5733-4628-83b4-d64d632a1d3a))
  (pad "C4" smd circle (at -6 -6.8) (size 0.4 0.4) (layers "F.Cu" "F.Paste" "F.Mask") (tstamp 43ade3e6-26fc-40c7-b5e1-0a2e8e43455b))
  (pad "C5" smd circle (at -5.2 -6.8) (size 0.4 0.4) (layers "F.Cu" "F.Paste" "F.Mask") (tstamp 83bd7395-6d74-4605-abf2-6639b8f28a68))
  (pad "C6" smd circle (at -4.4 -6.8) (size 0.4 0.4) (layers "F.Cu" "F.Paste" "F.Mask") (tstamp 71a23b0c-9542-4567-9074-5462ba9b9233))
  (pad "C7" smd circle (at -3.6 -6.8) (size 0.4 0.4) (layers "F.Cu" "F.Paste" "F.Mask") (tstamp 008cdf1d-bb3e-4b81-a35a-61c73217ce25))
  (pad "C8" smd circle (at -2.8 -6.8) (size 0.4 0.4) (layers "F.Cu" "F.Paste" "F.Mask") (tstamp 09058905-8f28-479e-9d89-88c44a8fe74d))
  (pad "C9" smd circle (at -2 -6.8) (size 0.4 0.4) (layers "F.Cu" "F.Paste" "F.Mask") (tstamp 1a3d2d57-bf77-4c53-88f6-c8fb55d06e8d))
  (pad "C10" smd circle (at -1.2 -6.8) (size 0.4 0.4) (layers "F.Cu" "F.Paste" "F.Mask") (tstamp c65a9040-a276-4c26-afb5-e969f5bade41))
  (pad "C11" smd circle (at -0.4 -6.8) (size 0.4 0.4) (layers "F.Cu" "F.Paste" "F.Mask") (tstamp 27e93278-422b-44f2-b48a-340031fbe59a))
  (pad "C12" smd circle (at 0.4 -6.8) (size 0.4 0.4) (layers "F.Cu" "F.Paste" "F.Mask") (tstamp 5d5f50ac-77b7-4ee8-8284-f6fbfc05db43))
  (pad "C13" smd circle (at 1.2 -6.8) (size 0.4 0.4) (layers "F.Cu" "F.Paste" "F.Mask") (tstamp b9ffed38-d695-4024-a5b5-1833d19b6a0d))
  (pad "C14" smd circle (at 2 -6.8) (size 0.4 0.4) (layers "F.Cu" "F.Paste" "F.Mask") (tstamp 05779302-b6ea-4098-bc30-7705e01197bc))
  (pad "C15" smd circle (at 2.8 -6.8) (size 0.4 0.4) (layers "F.Cu" "F.Paste" "F.Mask") (tstamp 49de51cd-1dda-452c-b4c4-ae2418849d36))
  (pad "C16" smd circle (at 3.6 -6.8) (size 0.4 0.4) (layers "F.Cu" "F.Paste" "F.Mask") (tstamp 8b5929d7-c2c8-4fad-902d-1c0b6ad67633))
  (pad "C17" smd circle (at 4.4 -6.8) (size 0.4 0.4) (layers "F.Cu" "F.Paste" "F.Mask") (tstamp 57837a91-098f-46b1-a204-e44c8eece8a2))
  (pad "C18" smd circle (at 5.2 -6.8) (size 0.4 0.4) (layers "F.Cu" "F.Paste" "F.Mask") (tstamp b6c83137-a538-42ab-8da5-b34632dddb09))
  (pad "C19" smd circle (at 6 -6.8) (size 0.4 0.4) (layers "F.Cu" "F.Paste" "F.Mask") (tstamp 4a4a2eee-3107-4bd2-8ab0-9fb08fe8ac26))
  (pad "C20" smd circle (at 6.8 -6.8) (size 0.4 0.4) (layers "F.Cu" "F.Paste" "F.Mask") (tstamp e2ac0d6b-e8b2-485b-a670-694da874355c))
  (pad "C21" smd circle (at 7.6 -6.8) (size 0.4 0.4) (layers "F.Cu" "F.Paste" "F.Mask") (tstamp 654ad750-f64c-46d3-a75d-259eec6df9d8))
  (pad "C22" smd circle (at 8.4 -6.8) (size 0.4 0.4) (layers "F.Cu" "F.Paste" "F.Mask") (tstamp b5defbe6-adcd-49fb-8484-bd7050f4673c))
  (pad "D1" smd circle (at -8.4 -6) (size 0.4 0.4) (layers "F.Cu" "F.Paste" "F.Mask") (tstamp ff7d9c74-efb7-425e-8337-ce9094833a9d))
  (pad "D2" smd circle (at -7.6 -6) (size 0.4 0.4) (layers "F.Cu" "F.Paste" "F.Mask") (tstamp e9ce7e6c-3660-4953-87a7-e73b8e29e9c1))
  (pad "D3" smd circle (at -6.8 -6) (size 0.4 0.4) (layers "F.Cu" "F.Paste" "F.Mask") (tstamp 0449784d-2267-49a2-9f1f-623665b1bf43))
  (pad "D4" smd circle (at -6 -6) (size 0.4 0.4) (layers "F.Cu" "F.Paste" "F.Mask") (tstamp dc8418a7-f6e3-4457-a96f-c15644e0a81f))
  (pad "D5" smd circle (at -5.2 -6) (size 0.4 0.4) (layers "F.Cu" "F.Paste" "F.Mask") (tstamp b4ba94d7-3040-4f66-89d0-1e4f9767d5df))
  (pad "D6" smd circle (at -4.4 -6) (size 0.4 0.4) (layers "F.Cu" "F.Paste" "F.Mask") (tstamp 274f70b0-e580-46ca-aac4-a54ea0f440f6))
  (pad "D7" smd circle (at -3.6 -6) (size 0.4 0.4) (layers "F.Cu" "F.Paste" "F.Mask") (tstamp 74579d27-8092-4855-98ed-1436da567626))
  (pad "D8" smd circle (at -2.8 -6) (size 0.4 0.4) (layers "F.Cu" "F.Paste" "F.Mask") (tstamp 5b5118fe-642d-46e4-aa49-3115b2976422))
  (pad "D9" smd circle (at -2 -6) (size 0.4 0.4) (layers "F.Cu" "F.Paste" "F.Mask") (tstamp d7e5367e-7edd-45fd-9fb4-d1880ad6b34d))
  (pad "D10" smd circle (at -1.2 -6) (size 0.4 0.4) (layers "F.Cu" "F.Paste" "F.Mask") (tstamp be25334f-98fe-4130-b895-cfc43b7d049f))
  (pad "D11" smd circle (at -0.4 -6) (size 0.4 0.4) (layers "F.Cu" "F.Paste" "F.Mask") (tstamp be6b817a-7d15-49e8-8c4f-1bc4a840c58a))
  (pad "D12" smd circle (at 0.4 -6) (size 0.4 0.4) (layers "F.Cu" "F.Paste" "F.Mask") (tstamp 3b780825-07b3-4788-b2d4-360a1f0263e7))
  (pad "D13" smd circle (at 1.2 -6) (size 0.4 0.4) (layers "F.Cu" "F.Paste" "F.Mask") (tstamp 1ba2bfd3-3329-412e-a428-e57f63ead958))
  (pad "D14" smd circle (at 2 -6) (size 0.4 0.4) (layers "F.Cu" "F.Paste" "F.Mask") (tstamp e96331c7-ef34-476a-a6db-cad0084091ac))
  (pad "D15" smd circle (at 2.8 -6) (size 0.4 0.4) (layers "F.Cu" "F.Paste" "F.Mask") (tstamp 8b53c58f-df7e-41a4-ba40-36eea20cc9ae))
  (pad "D16" smd circle (at 3.6 -6) (size 0.4 0.4) (layers "F.Cu" "F.Paste" "F.Mask") (tstamp 720702e4-324e-4ed2-9dee-dc8b0f498d48))
  (pad "D17" smd circle (at 4.4 -6) (size 0.4 0.4) (layers "F.Cu" "F.Paste" "F.Mask") (tstamp 635ebb29-8506-4a1b-ab10-dfffb51b8477))
  (pad "D18" smd circle (at 5.2 -6) (size 0.4 0.4) (layers "F.Cu" "F.Paste" "F.Mask") (tstamp b3dfd396-17c6-487f-baba-aa2837e322e8))
  (pad "D19" smd circle (at 6 -6) (size 0.4 0.4) (layers "F.Cu" "F.Paste" "F.Mask") (tstamp 97f3b75d-f548-4bbd-9f7b-6afd03f4d651))
  (pad "D20" smd circle (at 6.8 -6) (size 0.4 0.4) (layers "F.Cu" "F.Paste" "F.Mask") (tstamp 3d86e74b-dc2f-4a92-8a9f-e7de30fe0a8a))
  (pad "D21" smd circle (at 7.6 -6) (size 0.4 0.4) (layers "F.Cu" "F.Paste" "F.Mask") (tstamp c596a33d-b771-4ef1-b1ac-d0cbd0572d88))
  (pad "D22" smd circle (at 8.4 -6) (size 0.4 0.4) (layers "F.Cu" "F.Paste" "F.Mask") (tstamp a43b6f00-d59b-4430-b1a3-fa037dde738f))
  (pad "E1" smd circle (at -8.4 -5.2) (size 0.4 0.4) (layers "F.Cu" "F.Paste" "F.Mask") (tstamp 06c70dd1-dd29-49ca-ad12-bc379b960e26))
  (pad "E2" smd circle (at -7.6 -5.2) (size 0.4 0.4) (layers "F.Cu" "F.Paste" "F.Mask") (tstamp dffd319b-7f59-456d-9d35-d6e4f12e6d2e))
  (pad "E3" smd circle (at -6.8 -5.2) (size 0.4 0.4) (layers "F.Cu" "F.Paste" "F.Mask") (tstamp b569fe6b-e75c-4a4c-9bd1-5140d6b3bf42))
  (pad "E4" smd circle (at -6 -5.2) (size 0.4 0.4) (layers "F.Cu" "F.Paste" "F.Mask") (tstamp 44bde382-4087-484c-a6fb-8ac7f9a85a64))
  (pad "E5" smd circle (at -5.2 -5.2) (size 0.4 0.4) (layers "F.Cu" "F.Paste" "F.Mask") (tstamp 4cb3f309-fad3-4fc6-8177-4b197287713a))
  (pad "E6" smd circle (at -4.4 -5.2) (size 0.4 0.4) (layers "F.Cu" "F.Paste" "F.Mask") (tstamp 6480e0b9-895f-483f-a3f8-c970bb687a1b))
  (pad "E7" smd circle (at -3.6 -5.2) (size 0.4 0.4) (layers "F.Cu" "F.Paste" "F.Mask") (tstamp cedaee87-edfa-4463-a122-285e5bcf10a3))
  (pad "E8" smd circle (at -2.8 -5.2) (size 0.4 0.4) (layers "F.Cu" "F.Paste" "F.Mask") (tstamp 20ef5254-35ed-483f-a333-0edad29a963b))
  (pad "E9" smd circle (at -2 -5.2) (size 0.4 0.4) (layers "F.Cu" "F.Paste" "F.Mask") (tstamp f3138f57-952d-4a7c-8d80-7c14e06e96ac))
  (pad "E10" smd circle (at -1.2 -5.2) (size 0.4 0.4) (layers "F.Cu" "F.Paste" "F.Mask") (tstamp 3520ca10-bac0-4a83-8eab-3ba0b1915281))
  (pad "E11" smd circle (at -0.4 -5.2) (size 0.4 0.4) (layers "F.Cu" "F.Paste" "F.Mask") (tstamp 361e34f7-5cd5-4662-a3fa-fdea642fb349))
  (pad "E12" smd circle (at 0.4 -5.2) (size 0.4 0.4) (layers "F.Cu" "F.Paste" "F.Mask") (tstamp 92bbc17e-4abb-4c98-91ab-fc00193022ca))
  (pad "E13" smd circle (at 1.2 -5.2) (size 0.4 0.4) (layers "F.Cu" "F.Paste" "F.Mask") (tstamp 55dcb1bb-77b6-4c90-93be-5b0dd220111b))
  (pad "E14" smd circle (at 2 -5.2) (size 0.4 0.4) (layers "F.Cu" "F.Paste" "F.Mask") (tstamp 52614363-754b-4e19-b545-ca895a5bc628))
  (pad "E15" smd circle (at 2.8 -5.2) (size 0.4 0.4) (layers "F.Cu" "F.Paste" "F.Mask") (tstamp 6bed0b59-4057-474d-9ddc-4aeac2dc872c))
  (pad "E16" smd circle (at 3.6 -5.2) (size 0.4 0.4) (layers "F.Cu" "F.Paste" "F.Mask") (tstamp 740d1bc8-b1ca-491c-aaf4-d6e222423efb))
  (pad "E17" smd circle (at 4.4 -5.2) (size 0.4 0.4) (layers "F.Cu" "F.Paste" "F.Mask") (tstamp c82dc9ed-7df3-47ae-a400-19bf655910d4))
  (pad "E18" smd circle (at 5.2 -5.2) (size 0.4 0.4) (layers "F.Cu" "F.Paste" "F.Mask") (tstamp 16a2fe60-a8d5-46f4-8084-b43435022424))
  (pad "E19" smd circle (at 6 -5.2) (size 0.4 0.4) (layers "F.Cu" "F.Paste" "F.Mask") (tstamp d20d1208-9aa9-40bb-87b5-ab11e90dd698))
  (pad "E20" smd circle (at 6.8 -5.2) (size 0.4 0.4) (layers "F.Cu" "F.Paste" "F.Mask") (tstamp 5d6ea4eb-d2fc-44c0-b6b4-226463201934))
  (pad "E21" smd circle (at 7.6 -5.2) (size 0.4 0.4) (layers "F.Cu" "F.Paste" "F.Mask") (tstamp 7673114b-7df7-4874-8a9f-b418da4c1efc))
  (pad "E22" smd circle (at 8.4 -5.2) (size 0.4 0.4) (layers "F.Cu" "F.Paste" "F.Mask") (tstamp 6876481f-5077-40e9-8c20-12854088cf0c))
  (pad "F1" smd circle (at -8.4 -4.4) (size 0.4 0.4) (layers "F.Cu" "F.Paste" "F.Mask") (tstamp b4ad97c0-9545-4efb-ae7f-37bff75d17f1))
  (pad "F2" smd circle (at -7.6 -4.4) (size 0.4 0.4) (layers "F.Cu" "F.Paste" "F.Mask") (tstamp be485bde-a391-4f65-a34a-2f54fafd18bb))
  (pad "F3" smd circle (at -6.8 -4.4) (size 0.4 0.4) (layers "F.Cu" "F.Paste" "F.Mask") (tstamp b73f0f26-9f6b-40b1-8719-5ca3988f19e1))
  (pad "F4" smd circle (at -6 -4.4) (size 0.4 0.4) (layers "F.Cu" "F.Paste" "F.Mask") (tstamp a31fc6de-c877-4e4f-b266-5f7254a991de))
  (pad "F5" smd circle (at -5.2 -4.4) (size 0.4 0.4) (layers "F.Cu" "F.Paste" "F.Mask") (tstamp a2d41022-1c94-4474-916d-2bb1a141590a))
  (pad "F6" smd circle (at -4.4 -4.4) (size 0.4 0.4) (layers "F.Cu" "F.Paste" "F.Mask") (tstamp 523f6afa-bc44-49fc-b71e-80af2403d079))
  (pad "F7" smd circle (at -3.6 -4.4) (size 0.4 0.4) (layers "F.Cu" "F.Paste" "F.Mask") (tstamp c923eaec-e073-441c-afe6-c9fe64464820))
  (pad "F8" smd circle (at -2.8 -4.4) (size 0.4 0.4) (layers "F.Cu" "F.Paste" "F.Mask") (tstamp 5998de14-4472-4c30-a0e4-017ad7d3897a))
  (pad "F9" smd circle (at -2 -4.4) (size 0.4 0.4) (layers "F.Cu" "F.Paste" "F.Mask") (tstamp d9ca1366-69e5-4d67-ad6d-824c78e11952))
  (pad "F10" smd circle (at -1.2 -4.4) (size 0.4 0.4) (layers "F.Cu" "F.Paste" "F.Mask") (tstamp b4b832a3-ef2b-4358-8d4e-8def827c71ed))
  (pad "F11" smd circle (at -0.4 -4.4) (size 0.4 0.4) (layers "F.Cu" "F.Paste" "F.Mask") (tstamp 1189d0fe-d0a6-4a9c-b61b-b22194bae07f))
  (pad "F12" smd circle (at 0.4 -4.4) (size 0.4 0.4) (layers "F.Cu" "F.Paste" "F.Mask") (tstamp f03a2563-8df2-4386-919a-00ba00be4710))
  (pad "F13" smd circle (at 1.2 -4.4) (size 0.4 0.4) (layers "F.Cu" "F.Paste" "F.Mask") (tstamp 7741675f-bac4-42ed-98a4-fc7d84d49e59))
  (pad "F14" smd circle (at 2 -4.4) (size 0.4 0.4) (layers "F.Cu" "F.Paste" "F.Mask") (tstamp 65f53793-c1a3-45c4-b980-2229694e0267))
  (pad "F15" smd circle (at 2.8 -4.4) (size 0.4 0.4) (layers "F.Cu" "F.Paste" "F.Mask") (tstamp 47d73ad5-661c-48c5-8911-8dbb5ef622e2))
  (pad "F16" smd circle (at 3.6 -4.4) (size 0.4 0.4) (layers "F.Cu" "F.Paste" "F.Mask") (tstamp d30363d5-05bc-41f5-bf91-ebf213b17ea7))
  (pad "F17" smd circle (at 4.4 -4.4) (size 0.4 0.4) (layers "F.Cu" "F.Paste" "F.Mask") (tstamp 8e6daf45-50b5-4924-93ec-6e716ee0d2b4))
  (pad "F18" smd circle (at 5.2 -4.4) (size 0.4 0.4) (layers "F.Cu" "F.Paste" "F.Mask") (tstamp 6be8f7be-2bf9-40d6-8a0c-c5d36056b872))
  (pad "F19" smd circle (at 6 -4.4) (size 0.4 0.4) (layers "F.Cu" "F.Paste" "F.Mask") (tstamp 4f355e6b-fc0d-4306-8873-f64a62e2d9b2))
  (pad "F20" smd circle (at 6.8 -4.4) (size 0.4 0.4) (layers "F.Cu" "F.Paste" "F.Mask") (tstamp 2d7f09eb-191e-47a7-b55e-b6235103f795))
  (pad "F21" smd circle (at 7.6 -4.4) (size 0.4 0.4) (layers "F.Cu" "F.Paste" "F.Mask") (tstamp 750084a0-58f4-4a99-9351-a4fcbe32cb07))
  (pad "F22" smd circle (at 8.4 -4.4) (size 0.4 0.4) (layers "F.Cu" "F.Paste" "F.Mask") (tstamp 94df4368-dcfe-4b2d-9629-ac9ece9f805b))
  (pad "G1" smd circle (at -8.4 -3.6) (size 0.4 0.4) (layers "F.Cu" "F.Paste" "F.Mask") (tstamp 89c89ee2-7111-45f7-a8f4-34132fe053f6))
  (pad "G2" smd circle (at -7.6 -3.6) (size 0.4 0.4) (layers "F.Cu" "F.Paste" "F.Mask") (tstamp e32036a1-1632-4ac9-9fa0-33ada88190f5))
  (pad "G3" smd circle (at -6.8 -3.6) (size 0.4 0.4) (layers "F.Cu" "F.Paste" "F.Mask") (tstamp ff2391dd-58ca-4131-b59a-66f83cf65159))
  (pad "G4" smd circle (at -6 -3.6) (size 0.4 0.4) (layers "F.Cu" "F.Paste" "F.Mask") (tstamp d7558ca1-d2fd-429b-acb0-39cd14c035a9))
  (pad "G5" smd circle (at -5.2 -3.6) (size 0.4 0.4) (layers "F.Cu" "F.Paste" "F.Mask") (tstamp 79060ee8-1921-4e8c-9976-616fce0b72c6))
  (pad "G6" smd circle (at -4.4 -3.6) (size 0.4 0.4) (layers "F.Cu" "F.Paste" "F.Mask") (tstamp 41499873-11eb-4e67-8e58-4defc9206bdb))
  (pad "G7" smd circle (at -3.6 -3.6) (size 0.4 0.4) (layers "F.Cu" "F.Paste" "F.Mask") (tstamp 4d895471-d995-4dbd-96e2-8cc2ba27cc0c))
  (pad "G8" smd circle (at -2.8 -3.6) (size 0.4 0.4) (layers "F.Cu" "F.Paste" "F.Mask") (tstamp f1d2f0cc-0b3d-4109-999b-a6a38f0f6f8a))
  (pad "G9" smd circle (at -2 -3.6) (size 0.4 0.4) (layers "F.Cu" "F.Paste" "F.Mask") (tstamp 04d0042a-25d6-4e8c-8e72-fa4c486d5bbb))
  (pad "G10" smd circle (at -1.2 -3.6) (size 0.4 0.4) (layers "F.Cu" "F.Paste" "F.Mask") (tstamp f4fa71f7-0c9d-4afa-a32b-85d6490152cf))
  (pad "G11" smd circle (at -0.4 -3.6) (size 0.4 0.4) (layers "F.Cu" "F.Paste" "F.Mask") (tstamp 20ac22fe-9d19-4e62-8676-a80c1e1b4d7d))
  (pad "G12" smd circle (at 0.4 -3.6) (size 0.4 0.4) (layers "F.Cu" "F.Paste" "F.Mask") (tstamp 742aa177-05b1-451a-b91c-f9bd14dac3ae))
  (pad "G13" smd circle (at 1.2 -3.6) (size 0.4 0.4) (layers "F.Cu" "F.Paste" "F.Mask") (tstamp a10c14fb-43b8-4811-a2df-269b80102e9a))
  (pad "G14" smd circle (at 2 -3.6) (size 0.4 0.4) (layers "F.Cu" "F.Paste" "F.Mask") (tstamp 539127b7-9aba-46d3-8a50-3878fab23c5c))
  (pad "G15" smd circle (at 2.8 -3.6) (size 0.4 0.4) (layers "F.Cu" "F.Paste" "F.Mask") (tstamp 0f60aa74-65ca-4b82-9a2e-5f0fecf86d6e))
  (pad "G16" smd circle (at 3.6 -3.6) (size 0.4 0.4) (layers "F.Cu" "F.Paste" "F.Mask") (tstamp b77262a4-8235-482f-8948-1aa61ad41ebd))
  (pad "G17" smd circle (at 4.4 -3.6) (size 0.4 0.4) (layers "F.Cu" "F.Paste" "F.Mask") (tstamp 48847269-9e6a-40a7-951b-c674e2ef24c8))
  (pad "G18" smd circle (at 5.2 -3.6) (size 0.4 0.4) (layers "F.Cu" "F.Paste" "F.Mask") (tstamp 4f7eeaa9-beb1-42d8-9e4f-c58555b97ae9))
  (pad "G19" smd circle (at 6 -3.6) (size 0.4 0.4) (layers "F.Cu" "F.Paste" "F.Mask") (tstamp ae8a8df3-347a-4349-a289-aed5384f2f50))
  (pad "G20" smd circle (at 6.8 -3.6) (size 0.4 0.4) (layers "F.Cu" "F.Paste" "F.Mask") (tstamp 839183ab-cee8-47c2-8e2c-43b2cd976774))
  (pad "G21" smd circle (at 7.6 -3.6) (size 0.4 0.4) (layers "F.Cu" "F.Paste" "F.Mask") (tstamp e772ee66-78d1-468c-b01d-f6a73a7f5df1))
  (pad "G22" smd circle (at 8.4 -3.6) (size 0.4 0.4) (layers "F.Cu" "F.Paste" "F.Mask") (tstamp d9ce08b8-0cf3-4824-a750-15250f5f60b8))
  (pad "H1" smd circle (at -8.4 -2.8) (size 0.4 0.4) (layers "F.Cu" "F.Paste" "F.Mask") (tstamp 21483611-6270-4326-8ece-915c6c42339b))
  (pad "H2" smd circle (at -7.6 -2.8) (size 0.4 0.4) (layers "F.Cu" "F.Paste" "F.Mask") (tstamp 4d84d336-ef7a-45f7-87c5-72a51de2d16a))
  (pad "H3" smd circle (at -6.8 -2.8) (size 0.4 0.4) (layers "F.Cu" "F.Paste" "F.Mask") (tstamp d2894773-9114-4809-9c16-d8e038cf3ce5))
  (pad "H4" smd circle (at -6 -2.8) (size 0.4 0.4) (layers "F.Cu" "F.Paste" "F.Mask") (tstamp b2c11f66-ac66-450d-8df3-e9ca464e3008))
  (pad "H5" smd circle (at -5.2 -2.8) (size 0.4 0.4) (layers "F.Cu" "F.Paste" "F.Mask") (tstamp b0c70153-5284-4ae5-8d83-6f32b9c57e5e))
  (pad "H6" smd circle (at -4.4 -2.8) (size 0.4 0.4) (layers "F.Cu" "F.Paste" "F.Mask") (tstamp e781aa3f-bee0-4954-97a4-6447288b2da1))
  (pad "H7" smd circle (at -3.6 -2.8) (size 0.4 0.4) (layers "F.Cu" "F.Paste" "F.Mask") (tstamp 10a7675b-756a-4e56-84bb-7f521dce3261))
  (pad "H8" smd circle (at -2.8 -2.8) (size 0.4 0.4) (layers "F.Cu" "F.Paste" "F.Mask") (tstamp f546954f-46a2-4358-a205-8e5e8b12acb9))
  (pad "H9" smd circle (at -2 -2.8) (size 0.4 0.4) (layers "F.Cu" "F.Paste" "F.Mask") (tstamp 6494222b-fcd0-4af2-9a54-ec5898f04f44))
  (pad "H10" smd circle (at -1.2 -2.8) (size 0.4 0.4) (layers "F.Cu" "F.Paste" "F.Mask") (tstamp 3307aea8-3766-4f6c-a94e-4103c90379a0))
  (pad "H11" smd circle (at -0.4 -2.8) (size 0.4 0.4) (layers "F.Cu" "F.Paste" "F.Mask") (tstamp e53b7705-dba9-49f5-9d97-37f1096c951b))
  (pad "H12" smd circle (at 0.4 -2.8) (size 0.4 0.4) (layers "F.Cu" "F.Paste" "F.Mask") (tstamp 342a97ae-6496-4ef8-96a9-c4b83940b641))
  (pad "H13" smd circle (at 1.2 -2.8) (size 0.4 0.4) (layers "F.Cu" "F.Paste" "F.Mask") (tstamp a8b04fae-11bc-405f-ad55-94e06998ebba))
  (pad "H14" smd circle (at 2 -2.8) (size 0.4 0.4) (layers "F.Cu" "F.Paste" "F.Mask") (tstamp 7ac0c753-13d6-4eae-a1f9-9f89f93c94c3))
  (pad "H15" smd circle (at 2.8 -2.8) (size 0.4 0.4) (layers "F.Cu" "F.Paste" "F.Mask") (tstamp 7d7032ce-de99-4b7f-84f6-706d7356cc18))
  (pad "H16" smd circle (at 3.6 -2.8) (size 0.4 0.4) (layers "F.Cu" "F.Paste" "F.Mask") (tstamp 21d7f7fe-5548-4fd3-815a-afcee3d46aef))
  (pad "H17" smd circle (at 4.4 -2.8) (size 0.4 0.4) (layers "F.Cu" "F.Paste" "F.Mask") (tstamp 9d66d827-0978-4b49-915b-c07c59deb464))
  (pad "H18" smd circle (at 5.2 -2.8) (size 0.4 0.4) (layers "F.Cu" "F.Paste" "F.Mask") (tstamp 63e7ca07-90d1-4382-9aee-f479191617f1))
  (pad "H19" smd circle (at 6 -2.8) (size 0.4 0.4) (layers "F.Cu" "F.Paste" "F.Mask") (tstamp df209e0a-b340-487e-8b49-ed95ab45a5a9))
  (pad "H20" smd circle (at 6.8 -2.8) (size 0.4 0.4) (layers "F.Cu" "F.Paste" "F.Mask") (tstamp 8c3545db-161d-4080-bec6-2fb4c549de10))
  (pad "H21" smd circle (at 7.6 -2.8) (size 0.4 0.4) (layers "F.Cu" "F.Paste" "F.Mask") (tstamp 4c5d9c2c-77a9-414f-8859-bc4afd17213d))
  (pad "H22" smd circle (at 8.4 -2.8) (size 0.4 0.4) (layers "F.Cu" "F.Paste" "F.Mask") (tstamp 66f397d6-81ac-4fbd-8e70-040078ff3362))
  (pad "J1" smd circle (at -8.4 -2) (size 0.4 0.4) (layers "F.Cu" "F.Paste" "F.Mask") (tstamp 206da9cf-f5c2-4845-94a1-623782da47c7))
  (pad "J2" smd circle (at -7.6 -2) (size 0.4 0.4) (layers "F.Cu" "F.Paste" "F.Mask") (tstamp c646df42-a16e-4911-8f31-3affc5c95ad1))
  (pad "J3" smd circle (at -6.8 -2) (size 0.4 0.4) (layers "F.Cu" "F.Paste" "F.Mask") (tstamp e3263f4d-8776-4e36-80c1-8753fa2dc66e))
  (pad "J4" smd circle (at -6 -2) (size 0.4 0.4) (layers "F.Cu" "F.Paste" "F.Mask") (tstamp b1c98756-8a73-40ca-8a3d-10d4a7ea4c53))
  (pad "J5" smd circle (at -5.2 -2) (size 0.4 0.4) (layers "F.Cu" "F.Paste" "F.Mask") (tstamp c155d532-6228-4134-a77b-de5b13246189))
  (pad "J6" smd circle (at -4.4 -2) (size 0.4 0.4) (layers "F.Cu" "F.Paste" "F.Mask") (tstamp b82ca90f-f5a2-42e6-a29c-0d18a5f81557))
  (pad "J7" smd circle (at -3.6 -2) (size 0.4 0.4) (layers "F.Cu" "F.Paste" "F.Mask") (tstamp d2c68b76-8fd5-4912-bd05-a8bb9802781d))
  (pad "J8" smd circle (at -2.8 -2) (size 0.4 0.4) (layers "F.Cu" "F.Paste" "F.Mask") (tstamp 32c906e2-28a9-4e3b-b3e3-c409d5da9055))
  (pad "J9" smd circle (at -2 -2) (size 0.4 0.4) (layers "F.Cu" "F.Paste" "F.Mask") (tstamp 5cb566d3-fc48-4194-b89a-e761d30ded82))
  (pad "J10" smd circle (at -1.2 -2) (size 0.4 0.4) (layers "F.Cu" "F.Paste" "F.Mask") (tstamp b783e623-f06f-46b7-bdc8-e21d828d6aa8))
  (pad "J11" smd circle (at -0.4 -2) (size 0.4 0.4) (layers "F.Cu" "F.Paste" "F.Mask") (tstamp 71aab55f-9101-43bd-866b-9bc736c1341d))
  (pad "J12" smd circle (at 0.4 -2) (size 0.4 0.4) (layers "F.Cu" "F.Paste" "F.Mask") (tstamp 673ed5d2-a7b0-47a1-8bc5-d320a8c8664b))
  (pad "J13" smd circle (at 1.2 -2) (size 0.4 0.4) (layers "F.Cu" "F.Paste" "F.Mask") (tstamp 91015247-5a13-4ea0-a3db-1be7908991f8))
  (pad "J14" smd circle (at 2 -2) (size 0.4 0.4) (layers "F.Cu" "F.Paste" "F.Mask") (tstamp 2a7081c7-7460-4603-9a8d-2f09a4478937))
  (pad "J15" smd circle (at 2.8 -2) (size 0.4 0.4) (layers "F.Cu" "F.Paste" "F.Mask") (tstamp 1afc8082-690c-468c-8e1a-a365760d2177))
  (pad "J16" smd circle (at 3.6 -2) (size 0.4 0.4) (layers "F.Cu" "F.Paste" "F.Mask") (tstamp 8339c7b6-a239-41bd-80d6-8a837fe9e5ad))
  (pad "J17" smd circle (at 4.4 -2) (size 0.4 0.4) (layers "F.Cu" "F.Paste" "F.Mask") (tstamp fb2347f6-3dd1-4468-883c-c7d1c64168e0))
  (pad "J18" smd circle (at 5.2 -2) (size 0.4 0.4) (layers "F.Cu" "F.Paste" "F.Mask") (tstamp 8a124e45-bb99-48d1-a841-0d2588434edf))
  (pad "J19" smd circle (at 6 -2) (size 0.4 0.4) (layers "F.Cu" "F.Paste" "F.Mask") (tstamp bc88464a-553d-4952-8d0a-8be38b232495))
  (pad "J20" smd circle (at 6.8 -2) (size 0.4 0.4) (layers "F.Cu" "F.Paste" "F.Mask") (tstamp b6732482-be7b-4e0f-bf93-543ccd4560c8))
  (pad "J21" smd circle (at 7.6 -2) (size 0.4 0.4) (layers "F.Cu" "F.Paste" "F.Mask") (tstamp 76704f92-7d8b-4249-8b82-8b1028fc2de1))
  (pad "J22" smd circle (at 8.4 -2) (size 0.4 0.4) (layers "F.Cu" "F.Paste" "F.Mask") (tstamp 97f9f161-b09b-4b1b-8690-0696aa11d157))
  (pad "K1" smd circle (at -8.4 -1.2) (size 0.4 0.4) (layers "F.Cu" "F.Paste" "F.Mask") (tstamp 2da1a1c6-f4de-4b38-9b37-094dc26a106d))
  (pad "K2" smd circle (at -7.6 -1.2) (size 0.4 0.4) (layers "F.Cu" "F.Paste" "F.Mask") (tstamp fb1dd6fc-fa37-46df-bb86-ee7058a7503e))
  (pad "K3" smd circle (at -6.8 -1.2) (size 0.4 0.4) (layers "F.Cu" "F.Paste" "F.Mask") (tstamp a77cf49d-5b5e-404b-9f93-e4d30c3e1b92))
  (pad "K4" smd circle (at -6 -1.2) (size 0.4 0.4) (layers "F.Cu" "F.Paste" "F.Mask") (tstamp 13a43b84-347c-4bdb-8326-c93ce1ce9075))
  (pad "K5" smd circle (at -5.2 -1.2) (size 0.4 0.4) (layers "F.Cu" "F.Paste" "F.Mask") (tstamp eb70bbf9-ba00-492c-a903-6c0eba095085))
  (pad "K6" smd circle (at -4.4 -1.2) (size 0.4 0.4) (layers "F.Cu" "F.Paste" "F.Mask") (tstamp 9fb7b1ed-2777-4021-9867-7500047bd0b9))
  (pad "K7" smd circle (at -3.6 -1.2) (size 0.4 0.4) (layers "F.Cu" "F.Paste" "F.Mask") (tstamp 50fdf3b1-fdd5-4e09-a173-ffbf17617b24))
  (pad "K8" smd circle (at -2.8 -1.2) (size 0.4 0.4) (layers "F.Cu" "F.Paste" "F.Mask") (tstamp 5e2d85af-4733-44c4-bd99-6b130c5fa027))
  (pad "K9" smd circle (at -2 -1.2) (size 0.4 0.4) (layers "F.Cu" "F.Paste" "F.Mask") (tstamp c4ae8afe-5918-4d7a-b750-ceebb156c350))
  (pad "K10" smd circle (at -1.2 -1.2) (size 0.4 0.4) (layers "F.Cu" "F.Paste" "F.Mask") (tstamp 8ebd7bda-0b72-40c0-b054-ecc621f752df))
  (pad "K11" smd circle (at -0.4 -1.2) (size 0.4 0.4) (layers "F.Cu" "F.Paste" "F.Mask") (tstamp e5df7541-7e55-4067-937f-daad7aae6957))
  (pad "K12" smd circle (at 0.4 -1.2) (size 0.4 0.4) (layers "F.Cu" "F.Paste" "F.Mask") (tstamp e5597a3b-b976-4a34-9533-b895d8353c26))
  (pad "K13" smd circle (at 1.2 -1.2) (size 0.4 0.4) (layers "F.Cu" "F.Paste" "F.Mask") (tstamp 74941e71-4486-4091-b281-edae220c8f62))
  (pad "K14" smd circle (at 2 -1.2) (size 0.4 0.4) (layers "F.Cu" "F.Paste" "F.Mask") (tstamp 6d84132e-acbb-4d04-a0f3-cc0399c13867))
  (pad "K15" smd circle (at 2.8 -1.2) (size 0.4 0.4) (layers "F.Cu" "F.Paste" "F.Mask") (tstamp 0710f7e9-1941-46ce-8c95-543b7a208372))
  (pad "K16" smd circle (at 3.6 -1.2) (size 0.4 0.4) (layers "F.Cu" "F.Paste" "F.Mask") (tstamp cf72eee5-5b23-4057-bab8-70cbe091ad92))
  (pad "K17" smd circle (at 4.4 -1.2) (size 0.4 0.4) (layers "F.Cu" "F.Paste" "F.Mask") (tstamp 6f0c3ebb-8f5f-4a37-beda-f493043d9610))
  (pad "K18" smd circle (at 5.2 -1.2) (size 0.4 0.4) (layers "F.Cu" "F.Paste" "F.Mask") (tstamp 95d6d645-a5a7-4d19-b090-6f7afc64e7ff))
  (pad "K19" smd circle (at 6 -1.2) (size 0.4 0.4) (layers "F.Cu" "F.Paste" "F.Mask") (tstamp eacfe332-217a-4a76-b07c-cb7af43e1254))
  (pad "K20" smd circle (at 6.8 -1.2) (size 0.4 0.4) (layers "F.Cu" "F.Paste" "F.Mask") (tstamp fbed8bc0-f838-4b9e-874d-8e381e568eb9))
  (pad "K21" smd circle (at 7.6 -1.2) (size 0.4 0.4) (layers "F.Cu" "F.Paste" "F.Mask") (tstamp 64f25734-0966-4a3d-b63a-f7856997b23c))
  (pad "K22" smd circle (at 8.4 -1.2) (size 0.4 0.4) (layers "F.Cu" "F.Paste" "F.Mask") (tstamp 4e25a006-6895-47ff-841b-57871101c1a6))
  (pad "L1" smd circle (at -8.4 -0.4) (size 0.4 0.4) (layers "F.Cu" "F.Paste" "F.Mask") (tstamp 79b361a6-c42a-4bd4-8ba0-e2b1689db710))
  (pad "L2" smd circle (at -7.6 -0.4) (size 0.4 0.4) (layers "F.Cu" "F.Paste" "F.Mask") (tstamp 59f6736c-38a3-4e21-9ecc-43fb0e85ca75))
  (pad "L3" smd circle (at -6.8 -0.4) (size 0.4 0.4) (layers "F.Cu" "F.Paste" "F.Mask") (tstamp 09cf5250-b77d-4664-8bb5-91652257d5c4))
  (pad "L4" smd circle (at -6 -0.4) (size 0.4 0.4) (layers "F.Cu" "F.Paste" "F.Mask") (tstamp d601a91f-0fc8-451f-aedd-3c42abad1ba6))
  (pad "L5" smd circle (at -5.2 -0.4) (size 0.4 0.4) (layers "F.Cu" "F.Paste" "F.Mask") (tstamp 11ee8df3-f750-4a6c-8ed3-73a4ac3df3e1))
  (pad "L6" smd circle (at -4.4 -0.4) (size 0.4 0.4) (layers "F.Cu" "F.Paste" "F.Mask") (tstamp 19ceb3c3-a2f5-4f27-84cc-440964607c65))
  (pad "L7" smd circle (at -3.6 -0.4) (size 0.4 0.4) (layers "F.Cu" "F.Paste" "F.Mask") (tstamp 2e84cc09-1cb9-4919-a9bd-8b5adf29b26c))
  (pad "L8" smd circle (at -2.8 -0.4) (size 0.4 0.4) (layers "F.Cu" "F.Paste" "F.Mask") (tstamp 40d596f4-f110-452f-ab1f-08b6b8101cc8))
  (pad "L9" smd circle (at -2 -0.4) (size 0.4 0.4) (layers "F.Cu" "F.Paste" "F.Mask") (tstamp d8a446e5-155d-4841-a9a8-a29985d2ca9f))
  (pad "L10" smd circle (at -1.2 -0.4) (size 0.4 0.4) (layers "F.Cu" "F.Paste" "F.Mask") (tstamp 4e4f48a3-05c4-419d-b534-42b13ec8671b))
  (pad "L11" smd circle (at -0.4 -0.4) (size 0.4 0.4) (layers "F.Cu" "F.Paste" "F.Mask") (tstamp 02013703-7545-4911-8354-2bf313575caa))
  (pad "L12" smd circle (at 0.4 -0.4) (size 0.4 0.4) (layers "F.Cu" "F.Paste" "F.Mask") (tstamp 44d63905-359a-46b0-adef-a490bf7acafe))
  (pad "L13" smd circle (at 1.2 -0.4) (size 0.4 0.4) (layers "F.Cu" "F.Paste" "F.Mask") (tstamp 519b657b-2a9d-4af3-95d3-5825f347eab5))
  (pad "L14" smd circle (at 2 -0.4) (size 0.4 0.4) (layers "F.Cu" "F.Paste" "F.Mask") (tstamp 758f9ce0-7eaf-41a6-a617-f78dc8e856e6))
  (pad "L15" smd circle (at 2.8 -0.4) (size 0.4 0.4) (layers "F.Cu" "F.Paste" "F.Mask") (tstamp eb519da9-9dfa-4731-8196-69f8ae5011f3))
  (pad "L16" smd circle (at 3.6 -0.4) (size 0.4 0.4) (layers "F.Cu" "F.Paste" "F.Mask") (tstamp 23a42085-5cff-4b4c-8991-e18ba176161e))
  (pad "L17" smd circle (at 4.4 -0.4) (size 0.4 0.4) (layers "F.Cu" "F.Paste" "F.Mask") (tstamp 062bfad1-35cd-41f5-97c7-f56b6d22b32a))
  (pad "L18" smd circle (at 5.2 -0.4) (size 0.4 0.4) (layers "F.Cu" "F.Paste" "F.Mask") (tstamp f2bf0258-2ead-4353-ab0a-568b651a950f))
  (pad "L19" smd circle (at 6 -0.4) (size 0.4 0.4) (layers "F.Cu" "F.Paste" "F.Mask") (tstamp f0967fdf-2709-4997-82b4-f16633a12a93))
  (pad "L20" smd circle (at 6.8 -0.4) (size 0.4 0.4) (layers "F.Cu" "F.Paste" "F.Mask") (tstamp 8d8ee4f9-7555-42c2-ae17-5aa64ebaad78))
  (pad "L21" smd circle (at 7.6 -0.4) (size 0.4 0.4) (layers "F.Cu" "F.Paste" "F.Mask") (tstamp ec127a0f-97ac-40f2-8411-acd923ea0217))
  (pad "L22" smd circle (at 8.4 -0.4) (size 0.4 0.4) (layers "F.Cu" "F.Paste" "F.Mask") (tstamp 38aaea98-fe29-4a3a-970a-4e7e8d869331))
  (pad "M1" smd circle (at -8.4 0.4) (size 0.4 0.4) (layers "F.Cu" "F.Paste" "F.Mask") (tstamp 2f28a0df-df5d-4434-bdd5-d1233227bf2c))
  (pad "M2" smd circle (at -7.6 0.4) (size 0.4 0.4) (layers "F.Cu" "F.Paste" "F.Mask") (tstamp 1976c663-c705-41cb-a4b2-7ecc718498af))
  (pad "M3" smd circle (at -6.8 0.4) (size 0.4 0.4) (layers "F.Cu" "F.Paste" "F.Mask") (tstamp 0e696ca3-72db-4ca7-a70d-616a303e07fd))
  (pad "M4" smd circle (at -6 0.4) (size 0.4 0.4) (layers "F.Cu" "F.Paste" "F.Mask") (tstamp 9d4a407c-13a1-4339-8a92-0d1450f85a23))
  (pad "M5" smd circle (at -5.2 0.4) (size 0.4 0.4) (layers "F.Cu" "F.Paste" "F.Mask") (tstamp f1982e0e-4bfb-4780-80b4-4b8eaabcf114))
  (pad "M6" smd circle (at -4.4 0.4) (size 0.4 0.4) (layers "F.Cu" "F.Paste" "F.Mask") (tstamp 679f1abf-0015-4e1a-ad10-60353397c2f5))
  (pad "M7" smd circle (at -3.6 0.4) (size 0.4 0.4) (layers "F.Cu" "F.Paste" "F.Mask") (tstamp 3d0e5244-d9a7-4d3f-a3bf-5f9731cf6eea))
  (pad "M8" smd circle (at -2.8 0.4) (size 0.4 0.4) (layers "F.Cu" "F.Paste" "F.Mask") (tstamp b4280956-e5bf-46df-8399-bc8342831cdc))
  (pad "M9" smd circle (at -2 0.4) (size 0.4 0.4) (layers "F.Cu" "F.Paste" "F.Mask") (tstamp 45d30eb1-203f-4f0d-a515-8e1d3e97c85b))
  (pad "M10" smd circle (at -1.2 0.4) (size 0.4 0.4) (layers "F.Cu" "F.Paste" "F.Mask") (tstamp c91e01b1-a40c-495e-95c1-85e251cd78fd))
  (pad "M11" smd circle (at -0.4 0.4) (size 0.4 0.4) (layers "F.Cu" "F.Paste" "F.Mask") (tstamp 2a8474b1-7ad6-4696-abdb-ef236f23b759))
  (pad "M12" smd circle (at 0.4 0.4) (size 0.4 0.4) (layers "F.Cu" "F.Paste" "F.Mask") (tstamp d07e5800-0c3b-453e-997b-afa374a278c9))
  (pad "M13" smd circle (at 1.2 0.4) (size 0.4 0.4) (layers "F.Cu" "F.Paste" "F.Mask") (tstamp b7cae0c6-926e-4db8-a90c-3357db6fd392))
  (pad "M14" smd circle (at 2 0.4) (size 0.4 0.4) (layers "F.Cu" "F.Paste" "F.Mask") (tstamp 331e1864-f622-463b-85f5-1838cab22a9b))
  (pad "M15" smd circle (at 2.8 0.4) (size 0.4 0.4) (layers "F.Cu" "F.Paste" "F.Mask") (tstamp 83297fb0-2f19-436e-bc99-699d30d53fc1))
  (pad "M16" smd circle (at 3.6 0.4) (size 0.4 0.4) (layers "F.Cu" "F.Paste" "F.Mask") (tstamp 23d48fc3-d3fa-4568-8768-b8b0e9a25d90))
  (pad "M17" smd circle (at 4.4 0.4) (size 0.4 0.4) (layers "F.Cu" "F.Paste" "F.Mask") (tstamp 1d02eeda-17ae-4a12-a977-71259029648e))
  (pad "M18" smd circle (at 5.2 0.4) (size 0.4 0.4) (layers "F.Cu" "F.Paste" "F.Mask") (tstamp 7869402a-99a3-4374-8401-238d97561628))
  (pad "M19" smd circle (at 6 0.4) (size 0.4 0.4) (layers "F.Cu" "F.Paste" "F.Mask") (tstamp 1bcafd78-8937-47fd-98a8-0b8a65375b63))
  (pad "M20" smd circle (at 6.8 0.4) (size 0.4 0.4) (layers "F.Cu" "F.Paste" "F.Mask") (tstamp 5fbe09f5-4bea-470f-aec1-cb02aff26d39))
  (pad "M21" smd circle (at 7.6 0.4) (size 0.4 0.4) (layers "F.Cu" "F.Paste" "F.Mask") (tstamp 25bd1c69-d828-44b7-af75-1b063235b5f8))
  (pad "M22" smd circle (at 8.4 0.4) (size 0.4 0.4) (layers "F.Cu" "F.Paste" "F.Mask") (tstamp 02b840df-2c9e-432d-9672-ef12d79221d9))
  (pad "N1" smd circle (at -8.4 1.2) (size 0.4 0.4) (layers "F.Cu" "F.Paste" "F.Mask") (tstamp 4fa12ed6-f8f5-40f6-b5f7-34dba6716eb0))
  (pad "N2" smd circle (at -7.6 1.2) (size 0.4 0.4) (layers "F.Cu" "F.Paste" "F.Mask") (tstamp 51994c6c-3948-4b43-b7e3-32eb33a58903))
  (pad "N3" smd circle (at -6.8 1.2) (size 0.4 0.4) (layers "F.Cu" "F.Paste" "F.Mask") (tstamp 59834644-0849-43d7-a62f-496f5de763ba))
  (pad "N4" smd circle (at -6 1.2) (size 0.4 0.4) (layers "F.Cu" "F.Paste" "F.Mask") (tstamp fe7c6f2f-d909-4248-8876-22b29e692968))
  (pad "N5" smd circle (at -5.2 1.2) (size 0.4 0.4) (layers "F.Cu" "F.Paste" "F.Mask") (tstamp a9306ee0-a56b-43bd-a8b8-0fb736c66106))
  (pad "N6" smd circle (at -4.4 1.2) (size 0.4 0.4) (layers "F.Cu" "F.Paste" "F.Mask") (tstamp ad5b546a-68e9-4dd8-9e6a-a9abaf90f078))
  (pad "N7" smd circle (at -3.6 1.2) (size 0.4 0.4) (layers "F.Cu" "F.Paste" "F.Mask") (tstamp 7c350c48-04cf-4cef-9ddc-99ec4f2c0780))
  (pad "N8" smd circle (at -2.8 1.2) (size 0.4 0.4) (layers "F.Cu" "F.Paste" "F.Mask") (tstamp 0edb2c00-dc13-4041-84c2-7566730a9387))
  (pad "N9" smd circle (at -2 1.2) (size 0.4 0.4) (layers "F.Cu" "F.Paste" "F.Mask") (tstamp 5bda4f27-77b0-4afb-bfac-4b627a03b305))
  (pad "N10" smd circle (at -1.2 1.2) (size 0.4 0.4) (layers "F.Cu" "F.Paste" "F.Mask") (tstamp eb467a7c-3cf5-4b74-b8c1-7783ac8c3d2d))
  (pad "N11" smd circle (at -0.4 1.2) (size 0.4 0.4) (layers "F.Cu" "F.Paste" "F.Mask") (tstamp 5b94976f-28e0-4dcc-9ea4-0dfe9cec5835))
  (pad "N12" smd circle (at 0.4 1.2) (size 0.4 0.4) (layers "F.Cu" "F.Paste" "F.Mask") (tstamp 47944e48-49f0-421e-9a5a-7105fb1bfafc))
  (pad "N13" smd circle (at 1.2 1.2) (size 0.4 0.4) (layers "F.Cu" "F.Paste" "F.Mask") (tstamp b95dfdbd-ff7a-4677-b0f7-1244d0d3c391))
  (pad "N14" smd circle (at 2 1.2) (size 0.4 0.4) (layers "F.Cu" "F.Paste" "F.Mask") (tstamp 2e1e1ee2-be53-4539-8dd2-86772021b8bd))
  (pad "N15" smd circle (at 2.8 1.2) (size 0.4 0.4) (layers "F.Cu" "F.Paste" "F.Mask") (tstamp d6936c52-5954-436d-a4de-e28bb4e5b180))
  (pad "N16" smd circle (at 3.6 1.2) (size 0.4 0.4) (layers "F.Cu" "F.Paste" "F.Mask") (tstamp 413a9746-c4bd-4e5a-a70a-cda32e140ae1))
  (pad "N17" smd circle (at 4.4 1.2) (size 0.4 0.4) (layers "F.Cu" "F.Paste" "F.Mask") (tstamp d35ba20f-8b4c-4aff-992b-82d10479cafc))
  (pad "N18" smd circle (at 5.2 1.2) (size 0.4 0.4) (layers "F.Cu" "F.Paste" "F.Mask") (tstamp 9bf6b1ac-289b-4495-975a-a806088dc5fc))
  (pad "N19" smd circle (at 6 1.2) (size 0.4 0.4) (layers "F.Cu" "F.Paste" "F.Mask") (tstamp 7988f1d3-163d-4b0f-a7f2-0cbe20c872ef))
  (pad "N20" smd circle (at 6.8 1.2) (size 0.4 0.4) (layers "F.Cu" "F.Paste" "F.Mask") (tstamp 7472c6f8-bf4e-4097-b82d-17ce258965b7))
  (pad "N21" smd circle (at 7.6 1.2) (size 0.4 0.4) (layers "F.Cu" "F.Paste" "F.Mask") (tstamp 24ef71d4-0d24-44ef-8bba-2bb2941cfeea))
  (pad "N22" smd circle (at 8.4 1.2) (size 0.4 0.4) (layers "F.Cu" "F.Paste" "F.Mask") (tstamp 565a6c60-2e9e-4e57-ad00-f691781da443))
  (pad "P1" smd circle (at -8.4 2) (size 0.4 0.4) (layers "F.Cu" "F.Paste" "F.Mask") (tstamp 62a72dc9-336b-44dc-9107-811198fbbee4))
  (pad "P2" smd circle (at -7.6 2) (size 0.4 0.4) (layers "F.Cu" "F.Paste" "F.Mask") (tstamp 81695819-0979-4c3e-8cea-da490b689997))
  (pad "P3" smd circle (at -6.8 2) (size 0.4 0.4) (layers "F.Cu" "F.Paste" "F.Mask") (tstamp 08bdd63d-c65b-46a4-a852-ea24a2706e69))
  (pad "P4" smd circle (at -6 2) (size 0.4 0.4) (layers "F.Cu" "F.Paste" "F.Mask") (tstamp cf475e5c-cf6b-4a61-8f38-301d15eca758))
  (pad "P5" smd circle (at -5.2 2) (size 0.4 0.4) (layers "F.Cu" "F.Paste" "F.Mask") (tstamp a2bbaee4-4d50-4081-a05c-17df474b4588))
  (pad "P6" smd circle (at -4.4 2) (size 0.4 0.4) (layers "F.Cu" "F.Paste" "F.Mask") (tstamp fc3b833d-d8c4-4a2b-bbd0-9601da46734b))
  (pad "P7" smd circle (at -3.6 2) (size 0.4 0.4) (layers "F.Cu" "F.Paste" "F.Mask") (tstamp dd83e161-2bf1-4ea2-8c60-ef8320c204c6))
  (pad "P8" smd circle (at -2.8 2) (size 0.4 0.4) (layers "F.Cu" "F.Paste" "F.Mask") (tstamp 1ae26f31-5c19-4652-be43-d75e01837937))
  (pad "P9" smd circle (at -2 2) (size 0.4 0.4) (layers "F.Cu" "F.Paste" "F.Mask") (tstamp 9a893de1-f8a0-4359-b4d8-4c539017fccf))
  (pad "P10" smd circle (at -1.2 2) (size 0.4 0.4) (layers "F.Cu" "F.Paste" "F.Mask") (tstamp df1ea56e-76b6-4f34-a072-1552728e55eb))
  (pad "P11" smd circle (at -0.4 2) (size 0.4 0.4) (layers "F.Cu" "F.Paste" "F.Mask") (tstamp bb944b5b-38eb-47e1-b0a2-945df8d00e57))
  (pad "P12" smd circle (at 0.4 2) (size 0.4 0.4) (layers "F.Cu" "F.Paste" "F.Mask") (tstamp 1176c598-c519-4a45-ba6e-87de98fd814c))
  (pad "P13" smd circle (at 1.2 2) (size 0.4 0.4) (layers "F.Cu" "F.Paste" "F.Mask") (tstamp 75a39404-9e3b-4194-8afb-fe81107ee252))
  (pad "P14" smd circle (at 2 2) (size 0.4 0.4) (layers "F.Cu" "F.Paste" "F.Mask") (tstamp dccf1cab-2048-405f-85e6-e866244435e7))
  (pad "P15" smd circle (at 2.8 2) (size 0.4 0.4) (layers "F.Cu" "F.Paste" "F.Mask") (tstamp 91e209f6-c88d-44b5-a60d-e00ddd2cbaa3))
  (pad "P16" smd circle (at 3.6 2) (size 0.4 0.4) (layers "F.Cu" "F.Paste" "F.Mask") (tstamp e9399d97-2807-49a4-9364-1d26270aa91a))
  (pad "P17" smd circle (at 4.4 2) (size 0.4 0.4) (layers "F.Cu" "F.Paste" "F.Mask") (tstamp df29ae3b-288a-409d-9b31-2b12315600f7))
  (pad "P18" smd circle (at 5.2 2) (size 0.4 0.4) (layers "F.Cu" "F.Paste" "F.Mask") (tstamp 2093104c-482a-43ab-a311-f799dacd769e))
  (pad "P19" smd circle (at 6 2) (size 0.4 0.4) (layers "F.Cu" "F.Paste" "F.Mask") (tstamp 1b93a308-2aa7-4bd6-82fb-5abdf3a36700))
  (pad "P20" smd circle (at 6.8 2) (size 0.4 0.4) (layers "F.Cu" "F.Paste" "F.Mask") (tstamp 20eef159-42f8-4aca-a621-be406396330e))
  (pad "P21" smd circle (at 7.6 2) (size 0.4 0.4) (layers "F.Cu" "F.Paste" "F.Mask") (tstamp 86911114-7236-473f-bc95-a5d25f253925))
  (pad "P22" smd circle (at 8.4 2) (size 0.4 0.4) (layers "F.Cu" "F.Paste" "F.Mask") (tstamp b141725e-5f66-4d1a-a689-f5055dbe2d0c))
  (pad "R1" smd circle (at -8.4 2.8) (size 0.4 0.4) (layers "F.Cu" "F.Paste" "F.Mask") (tstamp 01ee1511-6d1d-427f-879a-97cf1ec1968e))
  (pad "R2" smd circle (at -7.6 2.8) (size 0.4 0.4) (layers "F.Cu" "F.Paste" "F.Mask") (tstamp 212deb92-2795-40ea-942e-ce0c390d6c02))
  (pad "R3" smd circle (at -6.8 2.8) (size 0.4 0.4) (layers "F.Cu" "F.Paste" "F.Mask") (tstamp 743d028c-c574-4633-ac81-2262b695051e))
  (pad "R4" smd circle (at -6 2.8) (size 0.4 0.4) (layers "F.Cu" "F.Paste" "F.Mask") (tstamp 5cd71707-184b-4b5c-be26-865b1a752eb5))
  (pad "R5" smd circle (at -5.2 2.8) (size 0.4 0.4) (layers "F.Cu" "F.Paste" "F.Mask") (tstamp 704cc08c-cb67-460e-a44f-9b51c84c8609))
  (pad "R6" smd circle (at -4.4 2.8) (size 0.4 0.4) (layers "F.Cu" "F.Paste" "F.Mask") (tstamp 361db22a-fec7-4af4-98c7-6af52f150489))
  (pad "R7" smd circle (at -3.6 2.8) (size 0.4 0.4) (layers "F.Cu" "F.Paste" "F.Mask") (tstamp 6bd031d7-38a8-4fc3-b3b5-a8869f5bda57))
  (pad "R8" smd circle (at -2.8 2.8) (size 0.4 0.4) (layers "F.Cu" "F.Paste" "F.Mask") (tstamp f5f128af-fb4d-4fc8-94a5-dc3a8c48f3f8))
  (pad "R9" smd circle (at -2 2.8) (size 0.4 0.4) (layers "F.Cu" "F.Paste" "F.Mask") (tstamp 15bd80d4-2158-4a35-bd54-2b2192fc3ad0))
  (pad "R10" smd circle (at -1.2 2.8) (size 0.4 0.4) (layers "F.Cu" "F.Paste" "F.Mask") (tstamp f35d1232-9478-44f2-9e0d-b487d8e00bbd))
  (pad "R11" smd circle (at -0.4 2.8) (size 0.4 0.4) (layers "F.Cu" "F.Paste" "F.Mask") (tstamp e9005f86-eecd-47d4-a523-6925433208b6))
  (pad "R12" smd circle (at 0.4 2.8) (size 0.4 0.4) (layers "F.Cu" "F.Paste" "F.Mask") (tstamp 93c34313-f320-47d6-b05f-01baf33a81fa))
  (pad "R13" smd circle (at 1.2 2.8) (size 0.4 0.4) (layers "F.Cu" "F.Paste" "F.Mask") (tstamp a5c9b6fb-e857-4fb2-9d0d-f27d07857fd4))
  (pad "R14" smd circle (at 2 2.8) (size 0.4 0.4) (layers "F.Cu" "F.Paste" "F.Mask") (tstamp b01d2e73-87e4-492b-9992-791897299954))
  (pad "R15" smd circle (at 2.8 2.8) (size 0.4 0.4) (layers "F.Cu" "F.Paste" "F.Mask") (tstamp 084befe4-7cd5-4e33-b678-0b85a50fa537))
  (pad "R16" smd circle (at 3.6 2.8) (size 0.4 0.4) (layers "F.Cu" "F.Paste" "F.Mask") (tstamp 1677fecb-4589-482b-bcb4-bfdfb1bb57b1))
  (pad "R17" smd circle (at 4.4 2.8) (size 0.4 0.4) (layers "F.Cu" "F.Paste" "F.Mask") (tstamp 3df8a0fe-0a51-4bf5-bc0d-c2700ae4c885))
  (pad "R18" smd circle (at 5.2 2.8) (size 0.4 0.4) (layers "F.Cu" "F.Paste" "F.Mask") (tstamp e646bced-6c5c-4b2b-a602-9d4d76becfb5))
  (pad "R19" smd circle (at 6 2.8) (size 0.4 0.4) (layers "F.Cu" "F.Paste" "F.Mask") (tstamp ab17ac41-a8c1-48c7-81d9-e100c4b40f14))
  (pad "R20" smd circle (at 6.8 2.8) (size 0.4 0.4) (layers "F.Cu" "F.Paste" "F.Mask") (tstamp b6be3f2c-19cb-40cb-a71e-d7dc4c10c52e))
  (pad "R21" smd circle (at 7.6 2.8) (size 0.4 0.4) (layers "F.Cu" "F.Paste" "F.Mask") (tstamp dd7f36e2-764a-481a-a497-db1dc6c7a68f))
  (pad "R22" smd circle (at 8.4 2.8) (size 0.4 0.4) (layers "F.Cu" "F.Paste" "F.Mask") (tstamp f0544d44-44e0-438d-b549-d8b4e7347567))
  (pad "T1" smd circle (at -8.4 3.6) (size 0.4 0.4) (layers "F.Cu" "F.Paste" "F.Mask") (tstamp 3bb49f1f-f22c-4165-9c5b-9f46b502698f))
  (pad "T2" smd circle (at -7.6 3.6) (size 0.4 0.4) (layers "F.Cu" "F.Paste" "F.Mask") (tstamp 49c2b34b-c561-412e-975b-90441a219861))
  (pad "T3" smd circle (at -6.8 3.6) (size 0.4 0.4) (layers "F.Cu" "F.Paste" "F.Mask") (tstamp fbb2f604-768c-4247-847d-d700dbaa9cf7))
  (pad "T4" smd circle (at -6 3.6) (size 0.4 0.4) (layers "F.Cu" "F.Paste" "F.Mask") (tstamp 769a62d8-5d34-4c9b-bb25-f3cc72e3af2e))
  (pad "T5" smd circle (at -5.2 3.6) (size 0.4 0.4) (layers "F.Cu" "F.Paste" "F.Mask") (tstamp 7ba539ef-963f-4cbe-a2de-48dca7b20e9a))
  (pad "T6" smd circle (at -4.4 3.6) (size 0.4 0.4) (layers "F.Cu" "F.Paste" "F.Mask") (tstamp 0d0acf63-8394-4ff3-a708-977e260829be))
  (pad "T7" smd circle (at -3.6 3.6) (size 0.4 0.4) (layers "F.Cu" "F.Paste" "F.Mask") (tstamp fe86edcd-443e-4b6b-b526-cc7eb69c0b38))
  (pad "T8" smd circle (at -2.8 3.6) (size 0.4 0.4) (layers "F.Cu" "F.Paste" "F.Mask") (tstamp f9f5d306-565e-42bb-8729-2a4a5c026186))
  (pad "T9" smd circle (at -2 3.6) (size 0.4 0.4) (layers "F.Cu" "F.Paste" "F.Mask") (tstamp 52e1ddde-393c-4dab-a908-20d2f1a358b7))
  (pad "T10" smd circle (at -1.2 3.6) (size 0.4 0.4) (layers "F.Cu" "F.Paste" "F.Mask") (tstamp 1c7cdf40-dba3-4fcc-bfa0-9bf05003c2f8))
  (pad "T11" smd circle (at -0.4 3.6) (size 0.4 0.4) (layers "F.Cu" "F.Paste" "F.Mask") (tstamp db155423-a61a-4e3b-90e4-746f93202d50))
  (pad "T12" smd circle (at 0.4 3.6) (size 0.4 0.4) (layers "F.Cu" "F.Paste" "F.Mask") (tstamp 77c72fc8-7415-4c9e-b98b-27e143d73054))
  (pad "T13" smd circle (at 1.2 3.6) (size 0.4 0.4) (layers "F.Cu" "F.Paste" "F.Mask") (tstamp 3275234a-7c91-4359-8e23-2351957de14a))
  (pad "T14" smd circle (at 2 3.6) (size 0.4 0.4) (layers "F.Cu" "F.Paste" "F.Mask") (tstamp 6643b6f8-b594-49a0-b3be-cf6ac0b4ef04))
  (pad "T15" smd circle (at 2.8 3.6) (size 0.4 0.4) (layers "F.Cu" "F.Paste" "F.Mask") (tstamp bbdab9b7-23bf-4949-835b-559948d1f309))
  (pad "T16" smd circle (at 3.6 3.6) (size 0.4 0.4) (layers "F.Cu" "F.Paste" "F.Mask") (tstamp 92a99f92-7b19-40eb-833e-548d47a62d32))
  (pad "T17" smd circle (at 4.4 3.6) (size 0.4 0.4) (layers "F.Cu" "F.Paste" "F.Mask") (tstamp bbbaa6d3-a7a9-475f-96dd-a619cdc0da19))
  (pad "T18" smd circle (at 5.2 3.6) (size 0.4 0.4) (layers "F.Cu" "F.Paste" "F.Mask") (tstamp 2a49f24e-93ea-4b62-bfaa-2f365bb60510))
  (pad "T19" smd circle (at 6 3.6) (size 0.4 0.4) (layers "F.Cu" "F.Paste" "F.Mask") (tstamp 4886e12d-87ea-4458-8215-8c60e4b88e89))
  (pad "T20" smd circle (at 6.8 3.6) (size 0.4 0.4) (layers "F.Cu" "F.Paste" "F.Mask") (tstamp 05c69326-f147-4932-b9a8-4fa2bc764682))
  (pad "T21" smd circle (at 7.6 3.6) (size 0.4 0.4) (layers "F.Cu" "F.Paste" "F.Mask") (tstamp fd862cf1-9d24-4e04-869e-a19ba5faed12))
  (pad "T22" smd circle (at 8.4 3.6) (size 0.4 0.4) (layers "F.Cu" "F.Paste" "F.Mask") (tstamp c8b5bb64-f052-44a2-8644-4a30f63ed01d))
  (pad "U1" smd circle (at -8.4 4.4) (size 0.4 0.4) (layers "F.Cu" "F.Paste" "F.Mask") (tstamp d185a6e7-020f-44d8-9b54-ea5b955da026))
  (pad "U2" smd circle (at -7.6 4.4) (size 0.4 0.4) (layers "F.Cu" "F.Paste" "F.Mask") (tstamp 7763dddf-6090-4938-ac6b-bb023d7afde4))
  (pad "U3" smd circle (at -6.8 4.4) (size 0.4 0.4) (layers "F.Cu" "F.Paste" "F.Mask") (tstamp d9844799-b728-4c58-bce0-25189a481ebb))
  (pad "U4" smd circle (at -6 4.4) (size 0.4 0.4) (layers "F.Cu" "F.Paste" "F.Mask") (tstamp 8a89bce8-7150-49e4-a8be-b4dc5f6fd010))
  (pad "U5" smd circle (at -5.2 4.4) (size 0.4 0.4) (layers "F.Cu" "F.Paste" "F.Mask") (tstamp ab3daba4-8144-4555-a83a-d38771db3dbe))
  (pad "U6" smd circle (at -4.4 4.4) (size 0.4 0.4) (layers "F.Cu" "F.Paste" "F.Mask") (tstamp c7de289b-ab63-4030-91b1-0e8f94870025))
  (pad "U7" smd circle (at -3.6 4.4) (size 0.4 0.4) (layers "F.Cu" "F.Paste" "F.Mask") (tstamp 99451d54-2ecc-4c39-ab6c-2900bb0e531e))
  (pad "U8" smd circle (at -2.8 4.4) (size 0.4 0.4) (layers "F.Cu" "F.Paste" "F.Mask") (tstamp aa5f73b4-dcef-4f20-8129-b508ac50f1d3))
  (pad "U9" smd circle (at -2 4.4) (size 0.4 0.4) (layers "F.Cu" "F.Paste" "F.Mask") (tstamp 96f47c42-07ca-4133-86f5-069f10b04f7f))
  (pad "U10" smd circle (at -1.2 4.4) (size 0.4 0.4) (layers "F.Cu" "F.Paste" "F.Mask") (tstamp 01c11ffb-3bc6-4495-8966-dfc8fc7e9214))
  (pad "U11" smd circle (at -0.4 4.4) (size 0.4 0.4) (layers "F.Cu" "F.Paste" "F.Mask") (tstamp 6e685aae-d2a2-469b-988c-36e3da5fbdcf))
  (pad "U12" smd circle (at 0.4 4.4) (size 0.4 0.4) (layers "F.Cu" "F.Paste" "F.Mask") (tstamp 5705f2de-6dd1-435a-be15-eb9fb4c0c38a))
  (pad "U13" smd circle (at 1.2 4.4) (size 0.4 0.4) (layers "F.Cu" "F.Paste" "F.Mask") (tstamp 49980e61-dbd9-45dc-b9f1-591d8ea8fa97))
  (pad "U14" smd circle (at 2 4.4) (size 0.4 0.4) (layers "F.Cu" "F.Paste" "F.Mask") (tstamp a9e10146-1983-4797-a11e-61e2dcb06021))
  (pad "U15" smd circle (at 2.8 4.4) (size 0.4 0.4) (layers "F.Cu" "F.Paste" "F.Mask") (tstamp db370d94-7394-4c8b-9423-4f0890a35f80))
  (pad "U16" smd circle (at 3.6 4.4) (size 0.4 0.4) (layers "F.Cu" "F.Paste" "F.Mask") (tstamp ed0e3487-c93a-4983-9592-f514d449b782))
  (pad "U17" smd circle (at 4.4 4.4) (size 0.4 0.4) (layers "F.Cu" "F.Paste" "F.Mask") (tstamp c6dd25d5-e39c-452c-aa4b-dccc6e3066a2))
  (pad "U18" smd circle (at 5.2 4.4) (size 0.4 0.4) (layers "F.Cu" "F.Paste" "F.Mask") (tstamp f93472c7-c363-48c2-8e69-02291c87a3f0))
  (pad "U19" smd circle (at 6 4.4) (size 0.4 0.4) (layers "F.Cu" "F.Paste" "F.Mask") (tstamp 6baaca3a-1113-4267-b97d-13bdbc66ab06))
  (pad "U20" smd circle (at 6.8 4.4) (size 0.4 0.4) (layers "F.Cu" "F.Paste" "F.Mask") (tstamp b1ad0133-1394-4be3-82ab-1badf58f9a98))
  (pad "U21" smd circle (at 7.6 4.4) (size 0.4 0.4) (layers "F.Cu" "F.Paste" "F.Mask") (tstamp 258b7296-1508-4cfe-9ac8-de360ad8acc9))
  (pad "U22" smd circle (at 8.4 4.4) (size 0.4 0.4) (layers "F.Cu" "F.Paste" "F.Mask") (tstamp 5a2d412f-0ef3-49ed-8068-2a5fb39fb1fd))
  (pad "V1" smd circle (at -8.4 5.2) (size 0.4 0.4) (layers "F.Cu" "F.Paste" "F.Mask") (tstamp d997fd0b-b6b4-4c9a-9e45-719d7702d182))
  (pad "V2" smd circle (at -7.6 5.2) (size 0.4 0.4) (layers "F.Cu" "F.Paste" "F.Mask") (tstamp 9cd4bea4-4cd3-4a14-9c29-92a6cc3129cd))
  (pad "V3" smd circle (at -6.8 5.2) (size 0.4 0.4) (layers "F.Cu" "F.Paste" "F.Mask") (tstamp ea025864-deab-4a76-85a6-2e443fef0c57))
  (pad "V4" smd circle (at -6 5.2) (size 0.4 0.4) (layers "F.Cu" "F.Paste" "F.Mask") (tstamp fbe160ad-b7af-4b2b-9eb3-ca2ab639ae8b))
  (pad "V5" smd circle (at -5.2 5.2) (size 0.4 0.4) (layers "F.Cu" "F.Paste" "F.Mask") (tstamp 65d34aa4-772c-4ec9-9c0b-9b18f7422845))
  (pad "V6" smd circle (at -4.4 5.2) (size 0.4 0.4) (layers "F.Cu" "F.Paste" "F.Mask") (tstamp c6c705a7-e9b0-41d4-aa27-6d1b23929347))
  (pad "V7" smd circle (at -3.6 5.2) (size 0.4 0.4) (layers "F.Cu" "F.Paste" "F.Mask") (tstamp e2d501aa-9cd2-49f0-832b-ff774abec67e))
  (pad "V8" smd circle (at -2.8 5.2) (size 0.4 0.4) (layers "F.Cu" "F.Paste" "F.Mask") (tstamp a1bb1d6c-eb14-409a-945d-66545d3fd8a0))
  (pad "V9" smd circle (at -2 5.2) (size 0.4 0.4) (layers "F.Cu" "F.Paste" "F.Mask") (tstamp 6ddafa95-9644-4c87-bce6-ebb48672a29b))
  (pad "V10" smd circle (at -1.2 5.2) (size 0.4 0.4) (layers "F.Cu" "F.Paste" "F.Mask") (tstamp b18c006e-9f3e-4e31-9b63-b5c8129a8c9b))
  (pad "V11" smd circle (at -0.4 5.2) (size 0.4 0.4) (layers "F.Cu" "F.Paste" "F.Mask") (tstamp 072df5e3-fc2c-4c2b-b52b-ef2402cf47f5))
  (pad "V12" smd circle (at 0.4 5.2) (size 0.4 0.4) (layers "F.Cu" "F.Paste" "F.Mask") (tstamp 5aff6c2d-1be0-4dd3-a06f-6f4825f98529))
  (pad "V13" smd circle (at 1.2 5.2) (size 0.4 0.4) (layers "F.Cu" "F.Paste" "F.Mask") (tstamp 1b481e37-28b3-4a25-872f-76ef177c18e4))
  (pad "V14" smd circle (at 2 5.2) (size 0.4 0.4) (layers "F.Cu" "F.Paste" "F.Mask") (tstamp a03b4844-0a22-4e26-90fc-4ec13659761d))
  (pad "V15" smd circle (at 2.8 5.2) (size 0.4 0.4) (layers "F.Cu" "F.Paste" "F.Mask") (tstamp 3dcb1bd8-bf26-4674-a3ff-858264044aa6))
  (pad "V16" smd circle (at 3.6 5.2) (size 0.4 0.4) (layers "F.Cu" "F.Paste" "F.Mask") (tstamp 29152fca-6494-4fa4-827c-7aabd52e0ded))
  (pad "V17" smd circle (at 4.4 5.2) (size 0.4 0.4) (layers "F.Cu" "F.Paste" "F.Mask") (tstamp 0b078815-0f4f-425e-918f-65b3fdf6fe36))
  (pad "V18" smd circle (at 5.2 5.2) (size 0.4 0.4) (layers "F.Cu" "F.Paste" "F.Mask") (tstamp 650691ec-f5b1-4b67-959c-70513c6f3175))
  (pad "V19" smd circle (at 6 5.2) (size 0.4 0.4) (layers "F.Cu" "F.Paste" "F.Mask") (tstamp c239e18b-ba4a-4236-bf47-4dd914876bd7))
  (pad "V20" smd circle (at 6.8 5.2) (size 0.4 0.4) (layers "F.Cu" "F.Paste" "F.Mask") (tstamp ec12650e-dc65-4dbb-a331-35ffaec13cc6))
  (pad "V21" smd circle (at 7.6 5.2) (size 0.4 0.4) (layers "F.Cu" "F.Paste" "F.Mask") (tstamp 6eeb9fa6-1345-4569-a66c-181d6302ad21))
  (pad "V22" smd circle (at 8.4 5.2) (size 0.4 0.4) (layers "F.Cu" "F.Paste" "F.Mask") (tstamp 5c8ecd90-8309-4b76-960f-62faf6c24840))
  (pad "W1" smd circle (at -8.4 6) (size 0.4 0.4) (layers "F.Cu" "F.Paste" "F.Mask") (tstamp 982f2e0d-38f8-444d-994f-1173a827fc19))
  (pad "W2" smd circle (at -7.6 6) (size 0.4 0.4) (layers "F.Cu" "F.Paste" "F.Mask") (tstamp dfb63cdb-12bc-43ca-91b3-a2528662b8ce))
  (pad "W3" smd circle (at -6.8 6) (size 0.4 0.4) (layers "F.Cu" "F.Paste" "F.Mask") (tstamp 81871b18-c06a-4679-9352-1d9cddfe79cf))
  (pad "W4" smd circle (at -6 6) (size 0.4 0.4) (layers "F.Cu" "F.Paste" "F.Mask") (tstamp b524e2dc-8e7e-47fd-92b1-8dc989979222))
  (pad "W5" smd circle (at -5.2 6) (size 0.4 0.4) (layers "F.Cu" "F.Paste" "F.Mask") (tstamp 8c8b946e-a900-452b-b4b3-a25cdd72cdcd))
  (pad "W6" smd circle (at -4.4 6) (size 0.4 0.4) (layers "F.Cu" "F.Paste" "F.Mask") (tstamp 9ae41f95-39d7-4716-8deb-935ebeaa8e18))
  (pad "W7" smd circle (at -3.6 6) (size 0.4 0.4) (layers "F.Cu" "F.Paste" "F.Mask") (tstamp 8087fdf0-7875-45fe-8534-5882a9546ecf))
  (pad "W8" smd circle (at -2.8 6) (size 0.4 0.4) (layers "F.Cu" "F.Paste" "F.Mask") (tstamp 62cc34a5-8c69-4ce0-b23d-eb3dd0d4a342))
  (pad "W9" smd circle (at -2 6) (size 0.4 0.4) (layers "F.Cu" "F.Paste" "F.Mask") (tstamp deb4a98a-f7d0-4452-8528-ee7acbcb1678))
  (pad "W10" smd circle (at -1.2 6) (size 0.4 0.4) (layers "F.Cu" "F.Paste" "F.Mask") (tstamp 5cfae3bb-40a3-4dec-a187-a3da32271adc))
  (pad "W11" smd circle (at -0.4 6) (size 0.4 0.4) (layers "F.Cu" "F.Paste" "F.Mask") (tstamp 4d87c66d-56f0-4f47-bb01-529947d4e20e))
  (pad "W12" smd circle (at 0.4 6) (size 0.4 0.4) (layers "F.Cu" "F.Paste" "F.Mask") (tstamp 7e810eac-3d6d-4238-ac94-6ed551b1b366))
  (pad "W13" smd circle (at 1.2 6) (size 0.4 0.4) (layers "F.Cu" "F.Paste" "F.Mask") (tstamp 46a35564-263e-4feb-bb18-df0f198f863d))
  (pad "W14" smd circle (at 2 6) (size 0.4 0.4) (layers "F.Cu" "F.Paste" "F.Mask") (tstamp 5979d233-b129-4e28-92ad-a1178bb18fac))
  (pad "W15" smd circle (at 2.8 6) (size 0.4 0.4) (layers "F.Cu" "F.Paste" "F.Mask") (tstamp e1be906f-fa27-4793-98b1-572c1a4a5ec1))
  (pad "W16" smd circle (at 3.6 6) (size 0.4 0.4) (layers "F.Cu" "F.Paste" "F.Mask") (tstamp 1c9bf196-59db-409c-8673-b444ef2ca775))
  (pad "W17" smd circle (at 4.4 6) (size 0.4 0.4) (layers "F.Cu" "F.Paste" "F.Mask") (tstamp 817c6569-f2ea-4db2-adfa-1af602274234))
  (pad "W18" smd circle (at 5.2 6) (size 0.4 0.4) (layers "F.Cu" "F.Paste" "F.Mask") (tstamp 2304a94f-1d39-40e3-8ef9-4fff580582db))
  (pad "W19" smd circle (at 6 6) (size 0.4 0.4) (layers "F.Cu" "F.Paste" "F.Mask") (tstamp d39daa86-d739-415b-8bf2-c9ec85eee67e))
  (pad "W20" smd circle (at 6.8 6) (size 0.4 0.4) (layers "F.Cu" "F.Paste" "F.Mask") (tstamp e33de9b0-772a-4052-bb59-ca27151b78c6))
  (pad "W21" smd circle (at 7.6 6) (size 0.4 0.4) (layers "F.Cu" "F.Paste" "F.Mask") (tstamp d68f50c5-dd91-41af-9e8b-c783e7c96392))
  (pad "W22" smd circle (at 8.4 6) (size 0.4 0.4) (layers "F.Cu" "F.Paste" "F.Mask") (tstamp 4348a959-6123-44a8-94e2-6b72234d4f77))
  (pad "Y1" smd circle (at -8.4 6.8) (size 0.4 0.4) (layers "F.Cu" "F.Paste" "F.Mask") (tstamp 11708279-2a57-4e33-be33-147b199ef44c))
  (pad "Y2" smd circle (at -7.6 6.8) (size 0.4 0.4) (layers "F.Cu" "F.Paste" "F.Mask") (tstamp a8d1f218-63dd-4b60-ab8e-d7cbbe6c344b))
  (pad "Y3" smd circle (at -6.8 6.8) (size 0.4 0.4) (layers "F.Cu" "F.Paste" "F.Mask") (tstamp 5dd1f20a-b7dd-4b40-8056-71a052885bb0))
  (pad "Y4" smd circle (at -6 6.8) (size 0.4 0.4) (layers "F.Cu" "F.Paste" "F.Mask") (tstamp bda915e8-66c3-4b85-915d-b6a9bc8447b2))
  (pad "Y5" smd circle (at -5.2 6.8) (size 0.4 0.4) (layers "F.Cu" "F.Paste" "F.Mask") (tstamp f7cdbe3a-f61e-4fb1-87a2-c68150f7076c))
  (pad "Y6" smd circle (at -4.4 6.8) (size 0.4 0.4) (layers "F.Cu" "F.Paste" "F.Mask") (tstamp 152bf9f6-8697-40b1-9f3a-adaf760fa0a8))
  (pad "Y7" smd circle (at -3.6 6.8) (size 0.4 0.4) (layers "F.Cu" "F.Paste" "F.Mask") (tstamp 62bb3f19-8992-4413-bcd2-953c85e23c60))
  (pad "Y8" smd circle (at -2.8 6.8) (size 0.4 0.4) (layers "F.Cu" "F.Paste" "F.Mask") (tstamp 1a9bbad4-886d-4bf2-ad7d-14958ffb751c))
  (pad "Y9" smd circle (at -2 6.8) (size 0.4 0.4) (layers "F.Cu" "F.Paste" "F.Mask") (tstamp d415892f-4a42-49f2-b459-a95cd55288c4))
  (pad "Y10" smd circle (at -1.2 6.8) (size 0.4 0.4) (layers "F.Cu" "F.Paste" "F.Mask") (tstamp 583afdff-36b9-46a6-b6eb-2f1ef19bf03b))
  (pad "Y11" smd circle (at -0.4 6.8) (size 0.4 0.4) (layers "F.Cu" "F.Paste" "F.Mask") (tstamp 945a886d-8293-4b02-8fdf-86d544732fd3))
  (pad "Y12" smd circle (at 0.4 6.8) (size 0.4 0.4) (layers "F.Cu" "F.Paste" "F.Mask") (tstamp 32c97b5f-444e-4cf9-a0fd-23925a33f9ba))
  (pad "Y13" smd circle (at 1.2 6.8) (size 0.4 0.4) (layers "F.Cu" "F.Paste" "F.Mask") (tstamp cd1a7797-dfbb-4a28-b8d2-aa8be454b59e))
  (pad "Y14" smd circle (at 2 6.8) (size 0.4 0.4) (layers "F.Cu" "F.Paste" "F.Mask") (tstamp bfe94e3a-a83a-4fbf-9077-d351c7c71720))
  (pad "Y15" smd circle (at 2.8 6.8) (size 0.4 0.4) (layers "F.Cu" "F.Paste" "F.Mask") (tstamp 16ebcf39-30a7-4202-91c0-0aa9d39aab78))
  (pad "Y16" smd circle (at 3.6 6.8) (size 0.4 0.4) (layers "F.Cu" "F.Paste" "F.Mask") (tstamp 79cd9493-7bc3-45ca-84b1-d3800c8f3363))
  (pad "Y17" smd circle (at 4.4 6.8) (size 0.4 0.4) (layers "F.Cu" "F.Paste" "F.Mask") (tstamp 337fab44-9175-4a84-8535-87a0b5e2509c))
  (pad "Y18" smd circle (at 5.2 6.8) (size 0.4 0.4) (layers "F.Cu" "F.Paste" "F.Mask") (tstamp 5e55fcc8-a04b-4739-a741-e192162157b0))
  (pad "Y19" smd circle (at 6 6.8) (size 0.4 0.4) (layers "F.Cu" "F.Paste" "F.Mask") (tstamp f9fe0f93-56e6-4448-b8fd-8cc54219868f))
  (pad "Y20" smd circle (at 6.8 6.8) (size 0.4 0.4) (layers "F.Cu" "F.Paste" "F.Mask") (tstamp b8cec599-240a-4d02-96be-7aecf87884de))
  (pad "Y21" smd circle (at 7.6 6.8) (size 0.4 0.4) (layers "F.Cu" "F.Paste" "F.Mask") (tstamp 8fc03f6b-7800-455c-a08a-b3e3f0de55e4))
  (pad "Y22" smd circle (at 8.4 6.8) (size 0.4 0.4) (layers "F.Cu" "F.Paste" "F.Mask") (tstamp 4004f9ce-0453-4729-acc0-330e769c19bd))
)
