(footprint "DDRtieIn4"
	(version 20240108)
	(generator "pcbnew")
	(generator_version "8.0")
        (tags "net tie")
        (attr exclude_from_pos_files exclude_from_bom allow_missing_courtyard)
        (net_tie_pad_groups "1, 2")
	(layer "F.Cu")
	(property "Reference" "REF**"
		(at 0 -0.5 0)
		(unlocked yes)
		(layer "F.SilkS")
		(hide yes)
		(uuid "5dafab7d-a422-4e60-a4f9-b256c9c4a030")
		(effects
			(font
				(size 1 1)
				(thickness 0.15)
			)
		)
	)
	(property "Value" "DDRtieIn4"
		(at 0 1 0)
		(unlocked yes)
		(layer "F.Fab")
		(uuid "ee78cf8e-71f8-4e6e-b765-c2072fa4e4f0")
		(effects
			(font
				(size 1 1)
				(thickness 0.15)
			)
		)
	)
	(property "Footprint" ""
		(at 0 0 0)
		(unlocked yes)
		(layer "F.Fab")
		(hide yes)
		(uuid "354edcab-8e7b-4a1d-9602-82977583f55e")
		(effects
			(font
				(size 1 1)
				(thickness 0.15)
			)
		)
	)
	(property "Description" ""
		(at 0 0 0)
		(unlocked yes)
		(layer "F.Fab")
		(hide yes)
		(uuid "7e116aba-81ca-4edb-9af8-674e38b6683a")
		(effects
			(font
				(size 1 1)
				(thickness 0.15)
			)
		)
	)
	(fp_line
		(start 0 0)
		(end 0.4 0.4)
		(stroke
			(width 0.1212)
			(type solid)
		)
		(layer "In4.Cu")
		(uuid "8bc1ed44-22ae-4ebb-8ab5-d53b2236155e")
	)
	(fp_text user "${REFERENCE}"
		(at 0 2.5 0)
		(unlocked yes)
		(layer "F.Fab")
		(uuid "fae7b21d-8096-480f-b40d-0c15b2be9c15")
		(effects
			(font
				(size 1 1)
				(thickness 0.15)
			)
		)
	)
	(pad "1" smd circle
		(at 0 0)
		(size 0.1212 0.1212)
		(layers "In4.Cu")
		(uuid "1cd40218-935e-4fd6-872e-73db339f6c45")
	)
	(pad "2" smd circle
		(at 0.4 0.4)
		(size 0.1212 0.1212)
		(layers "In4.Cu")
		(zone_connect 0)
		(uuid "9fac98e4-ff78-42a1-a5bd-88df192b4218")
	)
)