(footprint "heatsink" (version 20221018) (generator pcbnew)
  (layer "F.Cu")
  (attr through_hole)
  (fp_text reference "REF**" (at 0 -0.5 unlocked) (layer "F.SilkS")
      (effects (font (size 1 1) (thickness 0.15)))
    (tstamp a6832b2f-f236-47f3-ae70-a86e176fd27a)
  )
  (fp_text value "heatsink" (at 0 1 unlocked) (layer "F.Fab")
      (effects (font (size 1 1) (thickness 0.15)))
    (tstamp 85110bf1-c76b-47a2-8efb-2e4b709081b3)
  )
  (fp_text user "${REFERENCE}" (at 0 2.5 unlocked) (layer "F.Fab")
      (effects (font (size 1 1) (thickness 0.15)))
    (tstamp 23852364-90eb-4557-8e76-b85985f80881)
  )
  (fp_line (start -21.5 12.5) (end -18.5 12.5)
    (stroke (width 0.12) (type default)) (layer "Dwgs.User") (tstamp bb0b2247-c168-467b-9b05-d03af1ce62e0))
  (fp_line (start -18.5 18.5) (end -21.5 18.5)
    (stroke (width 0.12) (type default)) (layer "Dwgs.User") (tstamp b2fbe37d-d062-40a6-895d-6ce1ba57ae64))
  (fp_line (start 18.5 -18.5) (end 21.5 -18.5)
    (stroke (width 0.12) (type default)) (layer "Dwgs.User") (tstamp f48d8e5a-30bd-4583-92ad-d6bc214148bf))
  (fp_line (start 21.5 -12.5) (end 18.5 -12.5)
    (stroke (width 0.12) (type default)) (layer "Dwgs.User") (tstamp c91e2c1e-76f4-4b73-b50b-09b19aa5f869))
  (fp_rect (start 18.5 -18.5) (end -18.5 18.5)
    (stroke (width 0.12) (type default)) (fill none) (layer "Dwgs.User") (tstamp 29248be0-4345-429d-b20b-5305a30f42fe))
  (fp_arc (start -21.5 18.5) (mid -24.5 15.5) (end -21.5 12.5)
    (stroke (width 0.12) (type default)) (layer "Dwgs.User") (tstamp 3a799338-0f16-42a8-ab52-5af19cd43ee7))
  (fp_arc (start 21.5 -18.5) (mid 24.5 -15.5) (end 21.5 -12.5)
    (stroke (width 0.12) (type default)) (layer "Dwgs.User") (tstamp f1fc0901-75af-44df-8af9-d367af426d10))
  (fp_circle (center -21.5 15.5) (end -23 15.5)
    (stroke (width 0.12) (type default)) (fill none) (layer "Dwgs.User") (tstamp 156e4cce-3c7f-4255-bda0-f513b25f71ec))
  (fp_circle (center 21.5 -15.5) (end 23 -15.5)
    (stroke (width 0.12) (type default)) (fill none) (layer "Dwgs.User") (tstamp b757d8eb-23af-437e-9bbf-68d213f9095b))
  (pad "1" thru_hole circle (at -21.5 15.5) (size 4 4) (drill 3.15) (layers "*.Cu" "*.Mask") (tstamp 4c6e2158-1d3f-41de-b622-6cdaf6f013ec))
  (pad "1" thru_hole circle (at 21.5 -15.5) (size 4 4) (drill 3.15) (layers "*.Cu" "*.Mask") (tstamp 61d079b3-72ef-4487-9c64-ba6f2358182d))
)
