TYPE,PWR
AA20,VCCO_33
AB13,VCCO_33
U18,VCCO_33
V21,VCCO_33
W14,VCCO_33
Y17,VCCO_33
TYPE,I/O
GAP,2
U19,IO_0
T21,IO_L1P_T0
U21,IO_L1N_T0
T22,IO_L2P_T0
U22,IO_L2N_T0
V22,IO_L3P_T0_DQS
W22,IO_L3N_T0_DQS
W20,IO_L4P_T0
W21,IO_L4N_T0
U20,IO_L5P_T0
V20,IO_L5N_T0
V18,IO_L6P_T0
V19,IO_L6N_T0_VREF
AA22,IO_L7P_T1
AB22,IO_L7N_T1
AA21,IO_L8P_T1
AB21,IO_L8N_T1
Y20,IO_L9P_T1_DQS
Y21,IO_L9N_T1_DQS
AB19,IO_L10P_T1
AB20,IO_L10N_T1
Y19,IO_L11P_T1_SRCC
AA19,IO_L11N_T1_SRCC
Y18,IO_L12P_T1_MRCC
AA18,IO_L12N_T1_MRCC
W17,IO_L13P_T2_MRCC
W18,IO_L13N_T2_MRCC
W16,IO_L14P_T2_SRCC
Y16,IO_L14N_T2_SRCC
U15,IO_L15P_T2_DQS
U16,IO_L15N_T2_DQS
U17,IO_L16P_T2
V17,IO_L16N_T2
AA17,IO_L17P_T2
AB17,IO_L17N_T2
AA16,IO_L18P_T2
AB16,IO_L18N_T2
V14,IO_L19P_T3
V15,IO_L19N_T3_VREF
V13,IO_L20P_T3
W13,IO_L20N_T3
W15,IO_L21P_T3_DQS
Y15,IO_L21N_T3_DQS
Y14,IO_L22P_T3
AA14,IO_L22N_T3
Y13,IO_L23P_T3
AA13,IO_L23N_T3
AB14,IO_L24P_T3
AB15,IO_L24N_T3
U14,IO_25
